cards_yellow,games_starts,goals_pens_per90,cards_red,xa_per90,assists_per90,player,npxg,position,birth_year,goals_per90,nationality,xa,xg_xa_per90,pens_made,squad,minutes,goals,age,xg,xg_per90,pens_att,npxg_xa_per90,games,assists,goals_assists_pens_per90,npxg_per90,goals_assists_per90,league
0,0,0.00,0,0.00,0.00,Antonio Adán,0.0,PO,1987,0.00,es ESP,0.0,0.00,0,Atlético Madrid,24,0,32,0.0,0.00,0,0.00,1,0,0.00,0.00,0.00,La Liga
3,0,0.46,0,0.00,0.00,Aritz Aduriz,0.6,DL,1981,0.46,es ESP,0.0,0.62,0,Athletic Bilbao,194,1,38,1.3,0.62,1,0.26,14,0,0.46,0.26,0.46,La Liga
5,17,0.00,1,0.10,0.00,Lumor Agbenyenu,0.3,DF,1996,0.00,gh GHA,1.8,0.12,0,Mallorca,"1,607",0,22,0.3,0.02,0,0.12,20,0,0.00,0.02,0.00,La Liga
3,17,0.00,0,0.03,0.06,Martin Agirregabiria,0.0,DF,1996,0.00,es ESP,0.5,0.03,0,Alavés,"1,526",0,23,0.0,0.00,0,0.03,22,1,0.06,0.00,0.06,La Liga
4,21,0.00,0,0.04,0.05,Joseph Aidoo,0.9,DF,1995,0.00,gh GHA,0.9,0.09,0,Celta Vigo,"1,878",0,23,0.9,0.04,0,0.09,23,1,0.05,0.04,0.05,La Liga
4,16,0.07,0,0.14,0.07,Jordi Alba,0.5,DF,1989,0.07,es ESP,2.1,0.17,0,Barcelona,"1,377",1,30,0.5,0.04,0,0.17,17,1,0.13,0.04,0.13,La Liga
8,26,0.04,0,0.01,0.00,Raúl Albiol,1.2,DF,1985,0.04,es ESP,0.3,0.06,0,Villarreal,"2,338",1,33,1.2,0.05,0,0.06,26,0,0.04,0.05,0.04,La Liga
1,6,0.36,0,0.10,0.18,Paco Alcácer,1.6,DL,1993,0.36,es ESP,0.6,0.39,0,Villarreal,496,2,25,1.6,0.29,0,0.39,6,1,0.54,0.29,0.54,La Liga
7,13,0.07,0,0.03,0.07,Rubén Alcaraz,0.8,CC,1991,0.07,es ESP,0.4,0.09,0,Valladolid,"1,231",1,28,0.8,0.06,0,0.09,17,1,0.15,0.06,0.15,La Liga
0,0,0.00,0,0.00,0.00,Álex Alegría,0.0,DL,1992,0.00,es ESP,0.0,0.00,0,Mallorca,103,0,26,0.0,0.00,0,0.00,6,0,0.00,0.00,0.00,La Liga
1,4,0.00,0,0.02,0.00,Carles Aleñá,0.7,"CC,DL",1998,0.00,es ESP,0.1,0.16,0,Betis,438,0,21,0.7,0.14,0,0.16,8,0,0.00,0.14,0.00,La Liga
0,2,0.00,0,0.00,0.00,Carles Aleñá,0.0,CC,1998,0.00,es ESP,0.0,0.02,0,Barcelona,170,0,21,0.0,0.02,0,0.02,4,0,0.00,0.02,0.00,La Liga
4,9,0.00,0,0.03,0.00,Sergio Álvarez,0.2,"CC,DF",1992,0.00,es ESP,0.2,0.05,0,Eibar,705,0,27,0.2,0.02,0,0.05,11,0,0.00,0.02,0.00,La Liga
3,2,0.00,0,0.00,0.00,Sergio Álvarez,0.0,PO,1986,0.00,es ESP,0.0,0.00,0,Celta Vigo,180,0,32,0.0,0.00,0,0.00,4,0,0.00,0.00,0.00,La Liga
2,25,0.00,0,0.02,0.00,Yeray Álvarez,1.1,DF,1995,0.00,es ESP,0.5,0.06,0,Athletic Bilbao,"2,250",0,24,1.1,0.04,0,0.06,25,0,0.00,0.04,0.00,La Liga
0,1,0.00,0,0.00,0.00,Ibrahim Amadou,0.0,CC,1993,0.00,fr FRA,0.0,0.00,0,Leganés,90,0,26,0.0,0.00,0,0.00,1,0,0.00,0.00,0.00,La Liga
0,0,0.00,0,0.00,0.00,Amath,0.0,CC,1996,0.00,sn SEN,0.0,0.00,0,Getafe,45,0,23,0.0,0.00,0,0.00,3,0,0.00,0.00,0.00,La Liga
0,2,0.00,0,0.05,0.00,Miguel Ángel Guerrero,0.1,DL,1990,0.00,es ESP,0.1,0.12,0,Leganés,134,0,29,0.1,0.07,0,0.12,2,0,0.00,0.07,0.00,La Liga
0,7,0.00,0,0.00,0.00,Miguel Ángel Moyá,0.0,PO,1984,0.00,es ESP,0.0,0.00,0,Real Sociedad,630,0,35,0.0,0.00,0,0.00,7,0,0.00,0.00,0.00,La Liga
4,21,0.05,0,0.11,0.05,José Ángel,0.4,DF,1989,0.05,es ESP,2.3,0.13,0,Eibar,"1,836",1,29,0.4,0.02,0,0.13,21,1,0.10,0.02,0.10,La Liga
1,6,0.00,0,0.13,0.00,Antoñito,0.1,"DF,CC",1987,0.00,es ESP,0.8,0.15,0,Valladolid,519,0,31,0.1,0.02,0,0.15,9,0,0.00,0.02,0.00,La Liga
0,0,0.00,0,0.00,0.00,Vitorino Antunes,0.0,CC,1987,0.00,pt POR,0.0,0.00,0,Getafe,5,0,32,0.0,0.00,0,0.00,1,0,0.00,0.00,0.00,La Liga
1,1,0.00,0,0.00,0.00,Anuar,0.0,"CC,DL",1995,0.00,ma MAR,0.0,0.02,0,Valladolid,181,0,24,0.0,0.02,0,0.02,11,0,0.00,0.02,0.00,La Liga
9,24,0.04,1,0.05,0.04,Mauro Arambarri,1.4,CC,1995,0.04,uy URU,1.2,0.10,0,Getafe,"2,183",1,23,1.4,0.06,0,0.10,25,1,0.08,0.06,0.08,La Liga
8,24,0.04,0,0.00,0.04,Néstor Araujo,0.6,DF,1991,0.04,mx MEX,0.0,0.03,0,Celta Vigo,"2,174",1,27,0.6,0.03,0,0.03,25,1,0.08,0.03,0.08,La Liga
0,0,0.00,1,0.00,0.00,Ronald Araújo,0.0,DF,1999,0.00,uy URU,0.0,0.00,0,Barcelona,13,0,20,0.0,0.00,0,0.00,1,0,0.00,0.00,0.00,La Liga
5,19,0.05,0,0.00,0.00,Anaitz Arbilla,0.8,DF,1987,0.05,es ESP,0.1,0.05,0,Eibar,"1,729",1,32,0.8,0.04,0,0.05,20,0,0.05,0.04,0.05,La Liga
1,3,0.00,0,0.00,0.00,Alphonse Areola,0.0,PO,1993,0.00,fr FRA,0.0,0.00,0,Real Madrid,270,0,26,0.0,0.00,0,0.00,3,0,0.00,0.00,0.00,La Liga
0,6,0.00,0,0.09,0.16,Santiago Arias,0.1,DF,1992,0.00,co COL,0.5,0.11,0,Atlético Madrid,551,0,27,0.1,0.02,0,0.11,7,1,0.16,0.02,0.16,La Liga
2,2,0.00,0,0.17,0.00,José Arnaiz,0.6,"CC,DL",1995,0.00,es ESP,0.6,0.33,0,Leganés,328,0,24,0.6,0.15,0,0.33,12,0,0.00,0.15,0.00,La Liga
0,2,0.00,0,0.03,0.00,José Arnaiz,0.4,"DL,CC",1995,0.00,es ESP,0.1,0.24,0,Osasuna,170,0,24,0.4,0.21,0,0.24,4,0,0.00,0.21,0.00,La Liga
1,24,0.00,0,0.00,0.00,Sergio Asenjo,0.0,PO,1989,0.00,es ESP,0.0,0.00,0,Villarreal,"2,160",0,30,0.0,0.00,0,0.00,24,0,0.00,0.00,0.00,La Liga
7,26,0.27,0,0.11,0.08,Iago Aspas,6.9,DL,1987,0.35,es ESP,2.8,0.46,2,Celta Vigo,"2,331",9,31,9.2,0.36,3,0.38,26,2,0.35,0.27,0.42,La Liga
0,0,0.00,0,0.00,0.00,Roger Assalé,0.4,"DL,CC",1993,0.00,ci CIV,0.0,0.36,0,Leganés,100,0,25,0.4,0.36,0,0.36,4,0,0.00,0.36,0.00,La Liga
0,0,0.00,0,0.00,0.00,Miguel Atienza,0.0,CC,,0.00,es ESP,0.0,0.00,0,Eibar,25,0,,0.0,0.00,0,0.00,1,0,0.00,0.00,0.00,La Liga
6,18,0.51,0,0.15,0.11,Ezequiel Ávila,7.0,DL,1994,0.51,ar ARG,2.7,0.55,0,Osasuna,"1,593",9,25,7.0,0.40,0,0.55,20,2,0.62,0.40,0.62,La Liga
0,0,0.00,0,0.00,0.00,Javier Avilés,0.0,CC,1997,0.00,es ESP,0.0,0.00,0,Leganés,12,0,21,0.0,0.00,0,0.00,1,0,0.00,0.00,0.00,La Liga
7,16,0.00,0,0.01,0.00,Chidozie Awaziem,0.4,DF,1997,0.00,ng NGA,0.1,0.03,0,Leganés,"1,504",0,22,0.4,0.02,0,0.03,18,0,0.00,0.02,0.00,La Liga
3,9,0.20,0,0.02,0.00,Ramon Azeez,1.7,CC,1992,0.20,ng NGA,0.2,0.19,0,Granada,881,2,26,1.7,0.17,0,0.19,17,0,0.20,0.17,0.20,La Liga
5,25,0.00,0,0.00,0.00,Iddrisu Baba,0.4,CC,1996,0.00,gh GHA,0.1,0.02,0,Mallorca,"2,089",0,23,0.4,0.02,0,0.02,25,0,0.00,0.02,0.00,La Liga
1,4,0.21,0,0.01,0.00,Carlos Bacca,1.5,"DL,CC",1986,0.21,co COL,0.1,0.34,0,Villarreal,419,1,32,1.5,0.33,0,0.34,12,0,0.21,0.33,0.21,La Liga
4,11,0.18,1,0.13,0.18,Gareth Bale,3.5,"DL,CC",1989,0.18,wal WAL,1.4,0.45,0,Real Madrid,991,2,30,3.5,0.32,0,0.45,14,2,0.36,0.32,0.36,La Liga
1,3,0.00,0,0.00,0.00,Mikel Balenziaga,0.0,DF,1988,0.00,es ESP,0.0,0.00,0,Athletic Bilbao,270,0,31,0.0,0.00,0,0.00,3,0,0.00,0.00,0.00,La Liga
6,22,0.00,0,0.19,0.29,Éver Banega,1.0,CC,1988,0.10,ar ARG,4.0,0.32,2,Sevilla,"1,857",2,31,2.6,0.12,2,0.25,23,6,0.29,0.05,0.39,La Liga
3,5,0.00,0,0.02,0.00,Federico Barba,0.0,DF,1993,0.00,it ITA,0.1,0.02,0,Valladolid,450,0,25,0.0,0.01,0,0.02,5,0,0.00,0.01,0.00,La Liga
4,15,0.12,0,0.06,0.12,Enis Bardhi,1.9,CC,1995,0.12,mk MKD,1.0,0.18,0,Levante,"1,445",2,24,1.9,0.12,0,0.18,21,2,0.25,0.12,0.25,La Liga
0,1,0.00,0,0.00,0.00,Kike Barja,0.0,CC,1997,0.00,es ESP,0.0,0.04,0,Osasuna,64,0,22,0.0,0.04,0,0.04,1,0,0.00,0.04,0.00,La Liga
1,4,0.00,0,0.13,0.22,Antonio Barragán,0.0,DF,1987,0.00,es ESP,0.6,0.14,0,Betis,418,0,32,0.0,0.01,0,0.14,7,1,0.22,0.01,0.22,La Liga
0,1,0.00,0,0.16,0.00,Ander Barrenetxea,0.4,"DL,CC",2001,0.00,es ESP,0.4,0.35,0,Real Sociedad,214,0,17,0.4,0.19,0,0.35,12,0,0.00,0.19,0.00,La Liga
5,22,0.09,0,0.03,0.05,Marc Bartra,1.5,"DF,CC",1991,0.09,es ESP,0.7,0.10,0,Betis,"1,973",2,28,1.5,0.07,0,0.10,23,1,0.14,0.07,0.14,La Liga
0,1,0.00,0,0.04,0.00,Gil Bastião Dias,0.1,"DL,DF",1996,0.00,pt POR,0.0,0.15,0,Granada,84,0,22,0.1,0.10,0,0.15,2,0,0.00,0.10,0.00,La Liga
2,14,0.00,1,0.03,0.00,Fran Beltrán,1.0,CC,1999,0.00,es ESP,0.4,0.10,0,Celta Vigo,"1,266",0,20,1.0,0.07,0,0.10,20,0,0.00,0.07,0.00,La Liga
1,0,0.00,0,0.07,0.00,Hatem Ben Arfa,0.0,CC,1987,0.00,fr FRA,0.0,0.12,0,Valladolid,25,0,32,0.0,0.05,0,0.12,2,0,0.00,0.05,0.00,La Liga
0,25,0.45,0,0.20,0.24,Karim Benzema,10.9,DL,1987,0.57,fr FRA,4.8,0.73,3,Real Madrid,"2,221",14,31,13.1,0.53,3,0.64,26,6,0.69,0.44,0.81,La Liga
4,24,0.08,0,0.09,0.04,Yuri Berchiche,1.1,DF,1990,0.08,es ESP,2.0,0.13,0,Athletic Bilbao,"2,160",2,29,1.1,0.05,0,0.13,24,1,0.12,0.05,0.12,La Liga
2,0,0.00,0,0.15,0.00,Markel Bergara,0.2,CC,1986,0.00,es ESP,0.1,0.44,0,Getafe,70,0,33,0.2,0.30,0,0.44,2,0,0.00,0.30,0.00,La Liga
0,0,0.00,0,0.00,0.00,Sergio Bermejo,0.0,DL,1997,0.00,es ESP,0.0,0.00,0,Celta Vigo,4,0,21,0.0,0.00,0,0.00,1,0,0.00,0.00,0.00,La Liga
2,13,0.09,0,0.03,0.00,Pedro Bigas,1.0,DF,1990,0.09,es ESP,0.3,0.12,0,Eibar,"1,038",1,28,1.0,0.09,0,0.12,14,0,0.09,0.09,0.09,La Liga
4,25,0.00,0,0.00,0.00,Rubén Blanco,0.0,PO,1995,0.00,es ESP,0.0,0.00,0,Celta Vigo,"2,250",0,24,0.0,0.00,0,0.00,25,0,0.00,0.00,0.00,La Liga
0,9,0.00,0,0.13,0.17,Pablo de Blasis,0.3,"DF,CC",1988,0.00,ar ARG,1.5,0.16,0,Eibar,"1,029",0,31,0.3,0.03,0,0.16,21,2,0.17,0.03,0.17,La Liga
0,1,0.00,0,0.00,0.00,Yassine Bounou,0.0,PO,1991,0.00,ma MAR,0.0,0.00,0,Sevilla,135,0,28,0.0,0.00,0,0.00,2,0,0.00,0.00,0.00,La Liga
0,3,0.00,1,0.01,0.00,Filip Bradarić,0.2,CC,1992,0.00,hr CRO,0.0,0.09,0,Celta Vigo,213,0,27,0.2,0.08,0,0.09,4,0,0.00,0.08,0.00,La Liga
3,21,0.28,0,0.06,0.05,Martin Braithwaite,5.8,"DL,CC",1991,0.28,dk DEN,1.2,0.36,0,Leganés,"1,935",6,28,6.5,0.30,1,0.33,24,1,0.33,0.27,0.33,La Liga
0,1,0.00,0,0.02,0.00,Martin Braithwaite,0.6,DL,1991,0.00,dk DEN,0.0,0.43,0,Barcelona,128,0,28,0.6,0.40,0,0.43,3,0,0.00,0.40,0.00,La Liga
4,5,0.00,0,0.09,0.22,Brandon,0.9,DL,1995,0.00,es ESP,0.4,0.30,0,Osasuna,408,0,24,0.9,0.21,0,0.30,8,1,0.22,0.21,0.22,La Liga
7,19,0.00,0,0.05,0.05,Darko Brašanac,1.8,CC,1992,0.00,rs SRB,1.0,0.15,0,Osasuna,"1,680",0,27,1.8,0.10,0,0.15,21,1,0.05,0.10,0.05,La Liga
4,11,0.00,0,0.01,0.00,Yan Brice Eteki,0.3,CC,1997,0.00,cm CMR,0.1,0.04,0,Granada,910,0,21,0.3,0.03,0,0.04,17,0,0.00,0.03,0.00,La Liga
2,0,0.00,0,0.00,0.00,Bryan,0.0,DL,2001,0.00,es ESP,0.0,0.00,0,Sevilla,63,0,18,0.0,0.00,0,0.00,2,0,0.00,0.00,0.00,La Liga
2,0,0.00,0,0.08,0.00,Bryan,0.0,"CC,DL",2001,0.00,es ESP,0.1,0.11,0,Leganés,90,0,18,0.0,0.04,0,0.11,3,0,0.00,0.04,0.00,La Liga
6,25,0.39,0,0.03,0.09,Ante Budimir,6.8,DL,1991,0.39,hr CRO,0.8,0.33,0,Mallorca,"2,058",9,28,6.8,0.30,0,0.33,25,2,0.48,0.30,0.48,La Liga
2,5,0.17,0,0.00,0.00,Esteban Burgos,0.8,DF,1992,0.17,ar ARG,0.0,0.13,0,Eibar,527,1,27,0.8,0.13,0,0.13,7,0,0.17,0.13,0.17,La Liga
0,0,0.00,0,0.00,0.00,Burgui,0.0,CC,1993,0.00,es ESP,0.0,0.00,0,Alavés,20,0,25,0.0,0.00,0,0.00,2,0,0.00,0.00,0.00,La Liga
1,7,0.11,0,0.06,0.11,Oliver Burke,2.6,"CC,DL",1997,0.11,sco SCO,0.5,0.36,0,Alavés,788,1,22,2.6,0.30,0,0.36,21,1,0.23,0.30,0.23,La Liga
7,20,0.10,0,0.12,0.10,Sergio Busquets,1.1,CC,1988,0.10,es ESP,2.5,0.18,0,Barcelona,"1,800",2,31,1.1,0.05,0,0.18,23,2,0.20,0.05,0.20,La Liga
3,22,0.00,0,0.05,0.05,Unai Bustinza,0.4,DF,1992,0.00,es ESP,1.1,0.07,0,Leganés,"1,926",0,27,0.4,0.02,0,0.07,24,1,0.05,0.02,0.05,La Liga
0,0,0.00,0,0.00,0.00,Erick Cabaco,0.0,DF,1995,0.00,uy URU,0.0,0.00,0,Getafe,6,0,24,0.0,0.00,0,0.00,1,0,0.00,0.00,0.00,La Liga
4,9,0.00,0,0.01,0.00,Erick Cabaco,0.3,DF,1995,0.00,uy URU,0.1,0.04,0,Levante,808,0,24,0.3,0.03,0,0.04,11,0,0.00,0.03,0.00,La Liga
0,0,0.00,0,0.00,0.00,Ariday Cabrera,0.0,"CC,DL",1988,0.00,es ESP,0.0,0.09,0,Mallorca,35,0,30,0.0,0.09,0,0.09,2,0,0.00,0.09,0.00,La Liga
1,7,0.00,0,0.04,0.00,Leandro Cabrera,0.0,DF,1991,0.00,uy URU,0.3,0.04,0,Espanyol,630,0,28,0.0,0.00,0,0.04,7,0,0.00,0.00,0.00,La Liga
3,18,0.12,0,0.02,0.00,Leandro Cabrera,0.9,DF,1991,0.12,uy URU,0.3,0.07,0,Getafe,"1,530",2,28,0.9,0.05,0,0.07,18,0,0.12,0.05,0.12,La Liga
4,11,0.00,1,0.00,0.00,Fernando Calero,0.0,DF,1995,0.00,es ESP,0.0,0.00,0,Espanyol,976,0,23,0.0,0.00,0,0.00,14,0,0.00,0.00,0.00,La Liga
2,15,0.07,0,0.13,0.20,Jonathan Calleri,2.9,DL,1993,0.07,ar ARG,2.0,0.32,0,Espanyol,"1,362",1,25,2.9,0.19,0,0.32,19,3,0.26,0.19,0.26,La Liga
1,7,0.00,0,0.09,0.00,Víctor Camarasa,0.2,CC,1994,0.00,es ESP,0.6,0.12,0,Alavés,606,0,25,0.2,0.03,0,0.12,7,0,0.00,0.03,0.00,La Liga
0,0,0.00,0,0.00,0.00,Sergio Camello,0.0,DL,2001,0.00,es ESP,0.0,0.00,0,Atlético Madrid,23,0,18,0.0,0.00,0,0.00,2,0,0.00,0.00,0.00,La Liga
4,26,0.08,1,0.15,0.20,José Campaña,2.2,CC,1993,0.08,es ESP,3.9,0.24,0,Levante,"2,306",2,26,2.2,0.09,0,0.24,26,5,0.27,0.09,0.27,La Liga
1,3,0.00,0,0.00,0.00,Xisco Campos,0.1,DF,1982,0.00,es ESP,0.0,0.02,0,Mallorca,340,0,37,0.1,0.02,0,0.02,7,0,0.00,0.02,0.00,La Liga
2,7,0.00,0,0.00,0.00,Víctor Campuzano,1.4,DL,1997,0.00,es ESP,0.0,0.18,0,Espanyol,697,0,22,1.4,0.18,0,0.18,13,0,0.00,0.18,0.00,La Liga
4,26,0.08,0,0.14,0.16,Sergio Canales,2.6,CC,1991,0.16,es ESP,3.6,0.30,2,Betis,"2,294",4,28,4.2,0.16,2,0.24,26,4,0.24,0.10,0.31,La Liga
10,24,0.08,0,0.13,0.17,Ander Capa,1.0,DF,1992,0.08,es ESP,3.0,0.17,0,Athletic Bilbao,"2,143",2,27,1.0,0.04,0,0.17,25,4,0.25,0.04,0.25,La Liga
1,6,0.17,0,0.13,0.17,Marc Cardona,1.0,DL,1995,0.17,es ESP,0.8,0.30,0,Osasuna,527,1,24,1.0,0.17,0,0.30,13,1,0.34,0.17,0.34,La Liga
7,25,0.08,0,0.02,0.00,Diego Carlos,1.8,DF,1993,0.08,br BRA,0.5,0.09,0,Sevilla,"2,235",2,26,1.8,0.07,0,0.09,25,0,0.08,0.07,0.08,La Liga
0,1,0.00,0,0.03,0.00,Yannick Carrasco,0.2,"CC,DL",1993,0.00,be BEL,0.0,0.15,0,Atlético Madrid,155,0,25,0.2,0.12,0,0.15,5,0,0.00,0.12,0.00,La Liga
3,10,0.00,0,0.00,0.00,Daniel Carriço,0.3,DF,1988,0.00,pt POR,0.0,0.03,0,Sevilla,848,0,30,0.3,0.03,0,0.03,11,0,0.00,0.03,0.00,La Liga
1,10,0.09,0,0.03,0.18,Guido Carrillo,3.4,DL,1991,0.09,ar ARG,0.3,0.35,0,Leganés,999,1,28,3.6,0.32,0,0.33,20,2,0.27,0.30,0.27,La Liga
8,22,0.05,0,0.17,0.23,Dani Carvajal,2.1,DF,1992,0.05,es ESP,3.7,0.26,0,Real Madrid,"1,980",1,27,2.1,0.09,0,0.26,22,5,0.27,0.09,0.27,La Liga
4,9,0.00,1,0.09,0.00,William Carvalho,0.4,CC,1992,0.00,pt POR,0.7,0.14,0,Betis,707,0,27,0.4,0.05,0,0.14,9,0,0.00,0.05,0.00,La Liga
9,25,0.12,0,0.01,0.08,Casemiro,2.4,CC,1992,0.12,br BRA,0.2,0.11,0,Real Madrid,"2,220",3,27,2.4,0.10,0,0.11,25,2,0.20,0.10,0.20,La Liga
3,21,0.10,0,0.26,0.30,Santi Cazorla,1.5,CC,1984,0.39,es ESP,5.2,0.55,6,Villarreal,"1,830",8,34,6.0,0.30,6,0.33,24,6,0.39,0.07,0.69,La Liga
6,9,0.39,0,0.04,0.00,Charles,2.3,DL,1984,0.48,br BRA,0.4,0.41,1,Eibar,935,5,35,3.8,0.37,2,0.26,21,0,0.39,0.22,0.48,La Liga
1,0,0.00,0,0.33,0.00,Pablo Chavarría,0.3,"DL,CC",1988,0.00,ar ARG,0.4,0.58,0,Mallorca,105,0,31,0.3,0.25,0,0.58,7,0,0.00,0.25,0.00,La Liga
4,5,0.00,1,0.05,0.17,Pape Cheikh Diop,0.1,CC,1997,0.00,es ESP,0.3,0.07,0,Celta Vigo,544,0,21,0.1,0.02,0,0.07,14,1,0.17,0.02,0.17,La Liga
1,1,0.00,0,0.00,0.00,Chema,0.1,DF,1992,0.00,es ESP,0.0,0.10,0,Getafe,90,0,27,0.1,0.10,0,0.10,1,0,0.00,0.10,0.00,La Liga
5,8,0.13,0,0.08,0.13,Denis Cheryshev,2.2,"CC,DL",1990,0.13,ru RUS,0.6,0.35,0,Valencia,698,1,28,2.2,0.28,0,0.35,15,1,0.26,0.28,0.26,La Liga
1,13,0.19,0,0.20,0.06,Samuel Chukwueze,3.0,"CC,DL",1999,0.19,ng NGA,3.1,0.39,0,Villarreal,"1,403",3,20,3.0,0.19,0,0.39,26,1,0.26,0.19,0.26,La Liga
1,16,0.00,0,0.01,0.07,Jasper Cillessen,0.0,PO,1989,0.00,nl NED,0.1,0.01,0,Valencia,"1,377",0,30,0.0,0.00,0,0.01,16,1,0.07,0.00,0.07,La Liga
0,0,0.00,0,0.00,0.00,Óscar Clemente,0.0,CC,1999,0.00,es ESP,0.0,0.00,0,Atlético Madrid,3,0,20,0.0,0.00,0,0.00,1,0,0.00,0.00,0.00,La Liga
4,14,0.00,0,0.11,0.14,Carlos Clerc,0.1,DF,1992,0.00,es ESP,1.5,0.11,0,Levante,"1,259",0,27,0.1,0.00,0,0.11,14,2,0.14,0.00,0.14,La Liga
2,6,0.00,0,0.04,0.00,Coke,0.1,DF,1987,0.00,es ESP,0.3,0.05,0,Levante,595,0,32,0.1,0.01,0,0.05,11,0,0.00,0.01,0.00,La Liga
0,0,0.00,0,0.00,0.00,Álex Collado,0.0,DF,1999,0.00,es ESP,0.0,0.00,0,Barcelona,5,0,20,0.0,0.00,0,0.00,1,0,0.00,0.00,0.00,La Liga
7,17,0.00,1,0.00,0.00,Francis Coquelin,0.4,CC,1991,0.00,fr FRA,0.1,0.03,0,Valencia,"1,481",0,28,0.4,0.02,0,0.03,19,0,0.00,0.02,0.00,La Liga
1,3,0.00,0,0.17,0.00,Sébastien Corchia,0.1,DF,1990,0.00,fr FRA,0.5,0.22,0,Espanyol,270,0,28,0.1,0.05,0,0.22,3,0,0.00,0.05,0.00,La Liga
4,13,0.10,0,0.05,0.21,Iñigo Córdoba,0.9,DL,1997,0.10,es ESP,0.5,0.14,0,Athletic Bilbao,867,1,22,0.9,0.09,0,0.14,14,2,0.31,0.09,0.31,La Liga
5,16,0.30,0,0.19,0.36,Ángel Correa,5.6,"CC,DL",1995,0.30,ar ARG,3.2,0.53,0,Atlético Madrid,"1,493",5,24,5.6,0.34,0,0.53,22,6,0.66,0.34,0.66,La Liga
0,4,0.00,0,0.00,0.00,Rober Correa,0.0,DF,1992,0.00,es ESP,0.0,0.00,0,Eibar,347,0,26,0.0,0.00,0,0.00,5,0,0.00,0.00,0.00,La Liga
0,2,0.00,0,0.02,0.00,Thierry Correia,0.0,DF,1999,0.00,pt POR,0.0,0.02,0,Valencia,180,0,20,0.0,0.00,0,0.02,2,0,0.00,0.00,0.00,La Liga
2,8,0.11,0,0.14,0.22,Diego Costa,1.9,DL,1988,0.22,es ESP,1.2,0.52,1,Atlético Madrid,806,2,30,3.4,0.38,2,0.35,13,2,0.33,0.21,0.45,La Liga
1,10,0.00,0,0.02,0.00,Jaume Costa,0.0,DF,1988,0.00,es ESP,0.3,0.03,0,Valencia,961,0,31,0.0,0.00,0,0.03,13,0,0.00,0.00,0.00,La Liga
1,3,0.00,0,0.00,0.00,David Costas,0.1,DF,1995,0.00,es ESP,0.0,0.03,0,Celta Vigo,335,0,24,0.1,0.03,0,0.03,6,0,0.00,0.03,0.00,La Liga
0,24,0.00,0,0.00,0.00,Thibaut Courtois,0.1,PO,1992,0.00,be BEL,0.0,0.00,0,Real Madrid,"2,160",0,27,0.1,0.00,0,0.00,24,0,0.00,0.00,0.00,La Liga
0,3,0.00,0,0.03,0.00,Sebastián Cristóforo,0.1,CC,1993,0.00,uy URU,0.1,0.05,0,Eibar,316,0,25,0.1,0.01,0,0.05,7,0,0.00,0.01,0.00,La Liga
3,8,0.23,0,0.11,0.11,Cucho,2.6,"DL,CC",1999,0.23,co COL,1.0,0.41,0,Mallorca,798,2,20,2.6,0.30,0,0.41,12,1,0.34,0.30,0.34,La Liga
6,26,0.04,0,0.15,0.16,Marc Cucurella,1.3,"CC,DF",1998,0.04,es ESP,3.8,0.20,0,Getafe,"2,321",1,21,1.3,0.05,0,0.20,26,4,0.19,0.05,0.19,La Liga
3,16,0.00,1,0.00,0.00,Iván Cuéllar,0.0,PO,1984,0.00,es ESP,0.0,0.00,0,Leganés,"1,439",0,35,0.0,0.00,0,0.00,16,0,0.00,0.00,0.00,La Liga
0,0,0.00,0,0.00,0.00,Moanes Dabour,0.2,DL,1992,0.00,il ISR,0.0,0.58,0,Sevilla,24,0,27,0.2,0.58,0,0.58,2,0,0.00,0.58,0.00,La Liga
2,24,0.09,0,0.09,0.04,Sergi Darder,2.2,"CC,DL",1993,0.09,es ESP,2.0,0.18,0,Espanyol,"2,113",2,25,2.2,0.09,0,0.18,26,1,0.13,0.09,0.13,La Liga
1,3,0.25,1,0.18,0.00,Ousmane Dembélé,1.1,DL,1997,0.25,fr FRA,0.7,0.45,0,Barcelona,357,1,22,1.1,0.27,0,0.45,5,0,0.25,0.27,0.25,La Liga
2,2,0.00,0,0.36,0.62,Deyverson,0.1,DL,1991,0.00,br BRA,0.6,0.40,0,Getafe,144,0,28,0.1,0.05,0,0.40,4,1,0.62,0.05,0.62,La Liga
3,10,0.00,0,0.00,0.00,Mouctar Diakhaby,0.0,DF,1996,0.00,fr FRA,0.0,0.00,0,Valencia,"1,002",0,22,0.0,0.00,0,0.00,16,0,0.00,0.00,0.00,La Liga
0,0,0.00,0,0.00,0.00,Brahim Díaz,0.0,"DL,CC",1999,0.00,es ESP,0.0,0.00,0,Real Madrid,23,0,19,0.0,0.00,0,0.00,3,0,0.00,0.00,0.00,La Liga
3,25,0.00,0,0.11,0.21,Víctor Díaz,0.4,DF,1988,0.00,es ESP,2.6,0.12,0,Granada,"2,176",0,31,0.4,0.01,0,0.12,25,5,0.21,0.01,0.21,La Liga
6,19,0.05,0,0.02,0.00,Papakouli Diop,0.8,CC,1986,0.05,sn SEN,0.3,0.06,0,Eibar,"1,650",1,33,0.8,0.05,0,0.06,21,0,0.05,0.05,0.05,La Liga
3,25,0.00,0,0.02,0.00,Djené,0.2,DF,1991,0.00,tg TOG,0.4,0.02,0,Getafe,"2,250",0,27,0.2,0.01,0,0.02,25,0,0.00,0.01,0.00,La Liga
3,26,0.00,0,0.00,0.00,Marko Dmitrović,0.0,PO,1992,0.00,rs SRB,0.0,0.00,0,Eibar,"2,340",0,27,0.0,0.00,0,0.00,26,0,0.00,0.00,0.00,La Liga
1,11,0.00,0,0.00,0.00,Jaume Doménech,0.0,PO,1990,0.00,es ESP,0.0,0.00,0,Valencia,"1,053",0,28,0.0,0.00,0,0.00,12,0,0.00,0.00,0.00,La Liga
6,26,0.08,0,0.00,0.00,Domingos Duarte,1.0,DF,1995,0.08,pt POR,0.0,0.04,0,Granada,"2,291",2,24,1.0,0.04,0,0.04,26,0,0.08,0.04,0.08,La Liga
0,3,0.00,0,0.00,0.00,Óscar Duarte,0.1,DF,1989,0.00,cr CRC,0.0,0.03,0,Levante,305,0,30,0.1,0.03,0,0.03,6,0,0.00,0.03,0.00,La Liga
9,25,0.00,0,0.03,0.04,Rubén Duarte,1.0,DF,1995,0.00,es ESP,0.6,0.06,0,Alavés,"2,250",0,23,1.0,0.04,0,0.06,25,1,0.04,0.04,0.04,La Liga
1,1,0.00,0,0.00,0.00,Hugo Duro,0.4,DL,1999,0.00,es ESP,0.0,0.42,0,Getafe,77,0,19,0.4,0.42,0,0.42,3,0,0.00,0.42,0.00,La Liga
1,11,0.00,0,0.02,0.10,Aritz Elustondo,0.3,DF,1994,0.00,es ESP,0.2,0.04,0,Real Sociedad,928,0,25,0.3,0.02,0,0.04,13,1,0.10,0.02,0.10,La Liga
7,18,0.06,0,0.00,0.00,Rodrigo Ely,0.4,DF,1993,0.06,br BRA,0.0,0.02,0,Alavés,"1,586",1,25,0.4,0.02,0,0.02,18,0,0.06,0.02,0.06,La Liga
2,6,0.17,0,0.15,0.17,Adri Embarba,0.4,"CC,DL",1992,0.34,es ESP,0.9,0.35,1,Espanyol,527,2,27,1.2,0.20,1,0.22,7,1,0.34,0.07,0.51,La Liga
8,23,0.13,0,0.12,0.22,Emerson,1.3,DF,1999,0.13,br BRA,2.6,0.17,0,Betis,"2,025",3,20,1.3,0.06,0,0.17,23,5,0.36,0.06,0.36,La Liga
2,15,0.26,0,0.04,0.13,Youssef En-Nesyri,3.9,DL,1997,0.26,ma MAR,0.7,0.30,0,Leganés,"1,384",4,22,3.9,0.25,0,0.30,18,2,0.39,0.25,0.39,La Liga
0,3,0.84,0,0.01,0.00,Youssef En-Nesyri,2.9,DL,1997,0.84,ma MAR,0.0,0.82,0,Sevilla,320,3,22,2.9,0.80,0,0.82,7,0,0.84,0.80,0.84,La Liga
4,17,0.06,0,0.04,0.19,Sergi Enrich,2.4,DL,1990,0.06,es ESP,0.6,0.18,0,Eibar,"1,449",1,29,2.4,0.15,0,0.18,20,3,0.25,0.15,0.25,La Liga
2,8,0.00,0,0.09,0.00,Javier Eraso,0.4,"CC,DL",1990,0.00,es ESP,0.6,0.14,0,Leganés,607,0,29,0.4,0.06,0,0.14,15,0,0.00,0.06,0.00,La Liga
7,15,0.00,1,0.04,0.06,Gonzalo Escalante,1.5,CC,1993,0.00,ar ARG,0.6,0.14,0,Eibar,"1,406",0,26,1.5,0.10,0,0.14,20,1,0.06,0.10,0.06,La Liga
0,1,0.00,0,0.00,0.00,Aarón Escandell,0.0,PO,1995,0.00,es ESP,0.0,0.00,0,Granada,90,0,23,0.0,0.00,0,0.00,1,0,0.00,0.00,0.00,La Liga
2,4,0.00,0,0.12,0.00,Sergio Escudero,0.1,DF,1989,0.00,es ESP,0.6,0.15,0,Sevilla,413,0,29,0.1,0.03,0,0.15,6,0,0.00,0.03,0.00,La Liga
4,18,0.11,0,0.02,0.00,Bernardo Espinosa,1.5,DF,1989,0.11,co COL,0.3,0.10,0,Espanyol,"1,620",2,30,1.5,0.09,0,0.10,18,0,0.11,0.09,0.11,La Liga
0,0,0.00,0,0.00,0.00,Esquerdo,0.0,CC,1999,0.00,es ESP,0.0,0.00,0,Valencia,11,0,20,0.0,0.00,0,0.00,2,0,0.00,0.00,0.00,La Liga
6,26,0.04,0,0.09,0.12,Pervis Estupiñán,1.0,DF,1998,0.04,ec ECU,2.4,0.13,0,Osasuna,"2,337",1,21,1.0,0.04,0,0.13,26,3,0.15,0.04,0.15,La Liga
2,4,0.00,0,0.01,0.00,Oghenekaro Etebo,0.2,CC,1995,0.00,ng NGA,0.0,0.07,0,Getafe,349,0,23,0.2,0.06,0,0.07,6,0,0.00,0.06,0.00,La Liga
0,3,0.00,0,0.10,0.00,Beñat Etxebarria,0.1,CC,1987,0.00,es ESP,0.4,0.12,0,Athletic Bilbao,388,0,32,0.1,0.03,0,0.12,11,0,0.00,0.03,0.00,La Liga
5,9,0.00,0,0.00,0.00,Xabier Etxeita,0.1,DF,1987,0.00,es ESP,0.0,0.01,0,Getafe,855,0,31,0.1,0.01,0,0.01,10,0,0.00,0.01,0.00,La Liga
3,16,0.11,0,0.06,0.06,Edu Expósito,0.7,CC,1996,0.11,es ESP,1.1,0.10,0,Eibar,"1,581",2,22,0.7,0.04,0,0.10,25,1,0.17,0.04,0.17,La Liga
1,1,0.00,0,0.00,0.00,Fabricio,0.0,PO,1987,0.00,es ESP,0.0,0.00,0,Mallorca,90,0,31,0.0,0.00,0,0.00,2,0,0.00,0.00,0.00,La Liga
2,5,0.00,0,0.11,0.00,Fayçal Fajr,0.4,CC,1988,0.00,ma MAR,0.5,0.22,0,Getafe,389,0,30,0.4,0.10,0,0.22,7,0,0.00,0.10,0.00,La Liga
2,1,0.00,1,0.00,0.00,Eliseo Falcon,0.0,"DF,CC",1997,0.00,es ESP,0.0,0.00,0,Levante,73,0,22,0.0,0.00,0,0.00,1,0,0.00,0.00,0.00,La Liga
2,7,0.53,0,0.21,0.13,Ansu Fati,2.4,"DL,DF",2002,0.53,es ESP,1.6,0.52,0,Barcelona,683,4,16,2.4,0.32,0,0.52,16,1,0.66,0.32,0.66,La Liga
3,18,0.00,0,0.09,0.19,Aleix Febas,0.6,CC,1996,0.00,es ESP,1.4,0.13,0,Mallorca,"1,408",0,23,0.6,0.04,0,0.13,23,3,0.19,0.04,0.19,La Liga
7,10,0.00,2,0.03,0.11,Zouhair Feddal,0.3,DF,1989,0.00,ma MAR,0.3,0.07,0,Betis,848,0,30,0.3,0.03,0,0.07,11,1,0.11,0.03,0.11,La Liga
1,5,0.00,0,0.00,0.00,Ljubomir Fejsa,0.0,CC,1988,0.00,rs SRB,0.0,0.00,0,Alavés,365,0,30,0.0,0.00,0,0.00,5,0,0.00,0.00,0.00,La Liga
7,21,0.30,1,0.08,0.15,Nabil Fekir,4.6,"CC,DL",1993,0.35,fr FRA,1.5,0.34,1,Betis,"1,821",7,26,5.3,0.26,1,0.30,22,3,0.44,0.23,0.49,La Liga
6,20,0.05,0,0.01,0.00,Felipe,1.3,DF,1989,0.05,br BRA,0.1,0.07,0,Atlético Madrid,"1,801",1,30,1.3,0.06,0,0.07,21,0,0.05,0.06,0.05,La Liga
5,17,0.25,0,0.14,0.06,João Félix,5.5,"DL,CC",1999,0.25,pt POR,2.2,0.49,0,Atlético Madrid,"1,419",4,19,5.5,0.35,0,0.49,20,1,0.32,0.35,0.32,La Liga
2,27,0.00,0,0.01,0.00,Aitor Fernández,0.0,PO,1991,0.00,es ESP,0.2,0.01,0,Levante,"2,430",0,28,0.0,0.00,0,0.01,27,0,0.00,0.00,0.00,La Liga
1,3,0.00,0,0.00,0.00,Andrés Fernández,0.0,PO,1986,0.00,es ESP,0.0,0.00,0,Villarreal,293,0,32,0.0,0.00,0,0.00,4,0,0.00,0.00,0.00,La Liga
6,13,0.32,0,0.09,0.19,Carlos Fernández,4.1,"DL,CC",1996,0.32,es ESP,1.4,0.36,0,Granada,"1,393",5,23,4.1,0.27,0,0.36,23,3,0.52,0.27,0.52,La Liga
4,5,0.18,1,0.04,0.18,Gabriel Fernández,1.0,"DL,CC",1994,0.18,uy URU,0.2,0.22,0,Celta Vigo,511,1,25,1.0,0.18,0,0.22,16,1,0.35,0.18,0.35,La Liga
7,13,0.08,0,0.00,0.00,Joaquín Fernández,0.6,"CC,DF",1996,0.08,es ESP,0.1,0.05,0,Valladolid,"1,165",1,23,0.6,0.05,0,0.05,14,0,0.08,0.05,0.08,La Liga
10,24,0.04,0,0.02,0.09,Fernando,1.5,CC,1987,0.04,br BRA,0.5,0.09,0,Sevilla,"2,090",1,32,1.5,0.07,0,0.09,24,2,0.13,0.07,0.13,La Liga
2,5,0.17,0,0.06,0.00,Facundo Ferreyra,1.2,DL,1991,0.17,ar ARG,0.4,0.26,0,Espanyol,538,1,28,1.2,0.20,0,0.26,13,0,0.17,0.20,0.17,La Liga
3,9,0.11,0,0.05,0.00,Junior Firpo,0.6,DF,1996,0.11,es ESP,0.5,0.12,0,Barcelona,810,1,22,0.6,0.07,0,0.12,12,0,0.11,0.07,0.11,La Liga
1,3,0.00,1,0.00,0.00,Alessandro Florenzi,0.1,"DF,CC",1991,0.00,it ITA,0.0,0.06,0,Valencia,195,0,28,0.1,0.06,0,0.06,3,0,0.00,0.06,0.00,La Liga
2,4,0.43,1,0.20,0.00,Hernâni Fortes,0.9,"CC,DL",1991,0.43,pt POR,0.9,0.40,0,Levante,419,2,27,0.9,0.20,0,0.40,11,0,0.43,0.20,0.43,La Liga
2,5,0.16,0,0.02,0.00,Dimitri Foulquier,0.2,DF,1993,0.16,fr FRA,0.1,0.04,0,Granada,558,1,26,0.2,0.03,0,0.04,9,0,0.16,0.03,0.16,La Liga
0,0,0.00,0,0.10,0.00,Jorge de Frutos,0.1,"CC,DL",1997,0.00,es ESP,0.1,0.32,0,Valladolid,56,0,22,0.1,0.21,0,0.32,3,0,0.00,0.21,0.00,La Liga
1,5,0.00,0,0.02,0.00,Ramiro Funes Mori,0.1,DF,1991,0.00,ar ARG,0.1,0.03,0,Villarreal,451,0,28,0.1,0.01,0,0.03,7,0,0.00,0.01,0.00,La Liga
0,2,0.00,0,0.00,0.00,Enric Gallego,0.2,DL,1986,0.00,es ESP,0.0,0.13,0,Getafe,162,0,32,0.2,0.13,0,0.13,5,0,0.00,0.13,0.00,La Liga
2,4,0.00,0,0.12,0.00,Enric Gallego,1.0,DL,1986,0.00,es ESP,0.5,0.35,0,Osasuna,401,0,32,1.0,0.23,0,0.35,6,0,0.00,0.23,0.00,La Liga
0,12,0.43,0,0.14,0.09,Kévin Gameiro,3.6,DL,1987,0.43,fr FRA,1.7,0.52,0,Valencia,"1,047",5,32,4.3,0.37,1,0.45,19,1,0.52,0.31,0.52,La Liga
2,13,0.00,0,0.05,0.07,Fran Gámez,0.9,DF,1991,0.00,es ESP,0.7,0.12,0,Mallorca,"1,229",0,28,0.9,0.07,0,0.12,14,1,0.07,0.07,0.07,La Liga
2,17,0.00,0,0.00,0.00,Ezequiel Garay,0.6,DF,1986,0.00,ar ARG,0.1,0.04,0,Valencia,"1,438",0,32,0.6,0.04,0,0.04,17,0,0.00,0.04,0.00,La Liga
6,25,0.00,0,0.02,0.00,Dani García,0.5,CC,1990,0.00,es ESP,0.4,0.04,0,Athletic Bilbao,"2,278",0,29,0.5,0.02,0,0.04,26,0,0.00,0.02,0.00,La Liga
4,22,0.00,0,0.01,0.00,David García,0.9,DF,1994,0.00,es ESP,0.2,0.05,0,Osasuna,"1,982",0,25,0.9,0.04,0,0.05,23,0,0.00,0.04,0.00,La Liga
2,4,0.00,0,0.00,0.00,Javi García,0.2,CC,1987,0.00,es ESP,0.0,0.06,0,Betis,360,0,32,0.2,0.06,0,0.06,7,0,0.00,0.06,0.00,La Liga
10,20,0.00,1,0.01,0.00,Manu García,2.1,CC,1986,0.00,es ESP,0.1,0.11,0,Alavés,"1,766",0,33,2.1,0.10,0,0.11,25,0,0.00,0.10,0.00,La Liga
2,7,0.00,0,0.04,0.14,Raúl García,0.2,DF,1989,0.00,es ESP,0.2,0.06,0,Valladolid,630,0,30,0.2,0.02,0,0.06,7,1,0.14,0.02,0.14,La Liga
0,3,0.00,0,0.08,0.00,Raúl García,0.0,DF,1989,0.00,es ESP,0.2,0.08,0,Getafe,246,0,30,0.0,0.00,0,0.08,4,0,0.00,0.00,0.00,La Liga
8,24,0.17,0,0.02,0.04,Raúl García,3.7,"CC,DL",1986,0.39,es ESP,0.5,0.35,5,Athletic Bilbao,"2,092",9,33,7.7,0.33,5,0.18,25,1,0.22,0.16,0.43,La Liga
5,22,0.24,0,0.16,0.10,Rubén García,5.0,"CC,DL",1993,0.29,es ESP,3.3,0.43,1,Osasuna,"1,866",6,26,5.7,0.28,1,0.40,24,2,0.34,0.24,0.39,La Liga
0,2,0.45,0,0.05,0.00,Unai García,0.2,DF,1992,0.45,es ESP,0.1,0.15,0,Osasuna,198,1,27,0.2,0.10,0,0.15,4,0,0.45,0.10,0.45,La Liga
2,16,0.00,0,0.09,0.06,Mario Gaspar,0.9,DF,1990,0.00,es ESP,1.4,0.15,0,Villarreal,"1,410",0,28,0.9,0.06,0,0.15,16,1,0.06,0.06,0.06,La Liga
0,11,0.00,0,0.00,0.00,José Antonio Martínez Gil,0.1,DF,1993,0.00,es ESP,0.0,0.01,0,Granada,"1,035",0,26,0.1,0.01,0,0.01,16,0,0.00,0.01,0.00,La Liga
0,6,0.00,0,0.22,0.00,Ibai Gómez,1.1,DL,1989,0.00,es ESP,1.6,0.37,0,Athletic Bilbao,648,0,29,1.1,0.15,0,0.37,14,0,0.00,0.15,0.00,La Liga
5,17,0.48,0,0.10,0.12,Maxi Gómez,3.4,DL,1996,0.48,uy URU,1.7,0.34,0,Valencia,"1,508",8,22,4.1,0.25,1,0.30,22,2,0.60,0.20,0.60,La Liga
1,21,0.20,0,0.14,0.15,Moi Gómez,2.9,"DL,CC",1994,0.20,es ESP,2.7,0.29,0,Villarreal,"1,769",4,25,2.9,0.15,0,0.29,26,3,0.36,0.15,0.36,La Liga
2,5,0.00,0,0.01,0.00,Sergi Gómez,0.0,DF,1992,0.00,es ESP,0.0,0.01,0,Sevilla,491,0,27,0.0,0.00,0,0.01,8,0,0.00,0.00,0.00,La Liga
6,16,0.00,0,0.03,0.00,Maxime Gonalons,0.1,CC,1989,0.00,fr FRA,0.4,0.04,0,Granada,"1,450",0,30,0.1,0.01,0,0.04,18,0,0.00,0.01,0.00,La Liga
0,3,0.00,0,0.00,0.00,Bruno González,0.0,DF,1990,0.00,es ESP,0.0,0.01,0,Levante,270,0,29,0.0,0.01,0,0.01,3,0,0.00,0.01,0.00,La Liga
1,2,0.00,0,0.01,0.00,Bruno González,0.0,DF,1990,0.00,es ESP,0.0,0.01,0,Getafe,180,0,29,0.0,0.00,0,0.01,2,0,0.00,0.00,0.00,La Liga
2,7,0.00,0,0.00,0.00,Édgar González,0.8,CC,1997,0.00,es ESP,0.0,0.12,0,Betis,556,0,22,0.8,0.12,0,0.12,7,0,0.00,0.12,0.00,La Liga
0,4,0.00,0,0.01,0.00,Andoni Gorosabel,0.0,DF,1996,0.00,es ESP,0.1,0.02,0,Real Sociedad,383,0,22,0.0,0.00,0,0.02,6,0,0.00,0.00,0.00,La Liga
5,5,0.19,0,0.09,0.00,Esteban Granero,1.2,CC,1987,0.19,es ESP,0.5,0.33,0,Espanyol,471,1,32,1.2,0.24,0,0.33,11,0,0.19,0.24,0.19,La Liga
2,25,0.34,0,0.12,0.17,Antoine Griezmann,7.4,DL,1991,0.34,fr FRA,2.9,0.43,0,Barcelona,"2,138",8,28,7.4,0.31,0,0.43,26,4,0.51,0.31,0.51,La Liga
9,18,0.00,0,0.12,0.18,Andrés Guardado,0.8,CC,1986,0.00,mx MEX,2.1,0.17,0,Betis,"1,533",0,32,0.8,0.05,0,0.17,20,3,0.18,0.05,0.18,La Liga
5,24,0.26,0,0.07,0.09,Sergi Guardiola,4.6,DL,1991,0.26,es ESP,1.5,0.27,0,Valladolid,"2,060",6,28,4.6,0.20,0,0.27,25,2,0.35,0.20,0.35,La Liga
5,4,0.00,0,0.02,0.00,Nemanja Gudelj,0.2,"CC,DF",1991,0.00,rs SRB,0.1,0.05,0,Sevilla,699,0,27,0.2,0.03,0,0.05,16,0,0.00,0.03,0.00,La Liga
0,6,0.00,0,0.15,0.15,Gonçalo Guedes,0.6,"CC,DL",1996,0.00,pt POR,1.0,0.25,0,Valencia,598,0,22,0.6,0.10,0,0.25,10,1,0.15,0.10,0.15,La Liga
4,11,0.00,0,0.04,0.00,Ander Guevara,0.1,CC,1997,0.00,es ESP,0.5,0.05,0,Real Sociedad,941,0,22,0.1,0.01,0,0.05,14,0,0.00,0.01,0.00,La Liga
0,1,0.00,0,0.05,0.00,John Guidetti,0.2,DL,1992,0.00,se SWE,0.1,0.25,0,Alavés,93,0,27,0.2,0.20,0,0.25,5,0,0.00,0.20,0.00,La Liga
0,0,0.00,0,0.00,0.00,Hugo Guillamón,0.0,DF,2000,0.00,es ESP,0.0,0.00,0,Valencia,45,0,19,0.0,0.00,0,0.00,1,0,0.00,0.00,0.00,La Liga
1,1,0.00,0,0.00,0.00,Ismael Gutiérrez,0.0,CC,2000,0.00,es ESP,0.0,0.00,0,Betis,82,0,18,0.0,0.00,0,0.00,3,0,0.00,0.00,0.00,La Liga
1,7,0.28,0,0.10,0.14,Munir El Haddadi,2.1,DL,1995,0.28,es ESP,0.7,0.39,0,Sevilla,643,2,23,2.1,0.29,0,0.39,10,1,0.42,0.29,0.42,La Liga
0,9,0.12,0,0.12,0.12,Eden Hazard,1.4,"DL,CC",1991,0.12,be BEL,1.0,0.29,0,Real Madrid,748,1,28,1.4,0.17,0,0.29,10,1,0.24,0.17,0.24,La Liga
2,12,0.00,0,0.00,0.00,Mario Hermoso,0.6,DF,1995,0.00,es ESP,0.0,0.06,0,Atlético Madrid,"1,014",0,24,0.6,0.06,0,0.06,14,0,0.00,0.06,0.00,La Liga
5,21,0.14,0,0.01,0.00,Aridane Hernández,1.2,DF,1989,0.14,gq EQG,0.2,0.07,0,Osasuna,"1,890",3,30,1.2,0.06,0,0.07,21,0,0.14,0.06,0.14,La Liga
0,4,0.20,0,0.05,0.00,Javier Hernández,2.6,DL,1988,0.20,mx MEX,0.3,0.58,0,Sevilla,446,1,31,2.6,0.53,0,0.58,9,0,0.20,0.53,0.20,La Liga
0,0,0.00,0,0.94,0.00,Juan Hernández,0.0,CC,1994,0.00,es ESP,0.2,0.94,0,Celta Vigo,20,0,24,0.0,0.00,0,0.94,2,0,0.00,0.00,0.00,La Liga
0,9,0.00,0,0.14,0.11,Héctor Herrera,0.7,CC,1990,0.00,mx MEX,1.3,0.22,0,Atlético Madrid,833,0,29,0.7,0.07,0,0.22,14,1,0.11,0.07,0.11,La Liga
2,11,0.00,1,0.00,0.00,Sergio Herrera,0.0,PO,1993,0.00,es ESP,0.0,0.00,0,Osasuna,"1,024",0,26,0.0,0.00,0,0.00,12,0,0.00,0.00,0.00,La Liga
9,18,0.11,0,0.05,0.11,Yangel Herrera,1.7,CC,1998,0.11,ve VEN,0.9,0.14,0,Granada,"1,577",2,21,1.7,0.09,0,0.14,20,2,0.23,0.09,0.23,La Liga
0,3,0.00,0,0.00,0.00,Iago Herrerín,0.0,PO,1988,0.00,es ESP,0.0,0.00,0,Athletic Bilbao,270,0,31,0.0,0.00,0,0.00,3,0,0.00,0.00,0.00,La Liga
0,4,0.19,0,0.07,0.00,Pablo Hervías,0.6,CC,1993,0.19,es ESP,0.4,0.17,0,Valladolid,483,1,26,0.6,0.10,0,0.17,14,0,0.19,0.10,0.19,La Liga
3,5,0.17,0,0.04,0.00,Robert Ibáñez,1.1,"CC,DL",1993,0.17,es ESP,0.2,0.23,0,Osasuna,533,1,26,1.1,0.19,0,0.23,14,0,0.17,0.19,0.17,La Liga
9,26,0.00,0,0.01,0.08,Vicente Iborra,1.2,CC,1988,0.00,es ESP,0.3,0.06,0,Villarreal,"2,125",0,31,1.2,0.05,0,0.06,26,2,0.08,0.05,0.08,La Liga
1,15,0.20,1,0.13,0.13,Borja Iglesias,1.7,DL,1993,0.20,es ESP,2.0,0.25,0,Betis,"1,380",3,26,1.7,0.11,0,0.25,24,2,0.33,0.11,0.33,La Liga
0,3,0.00,0,0.10,0.00,Asier Illarramendi,0.0,CC,1990,0.00,es ESP,0.2,0.11,0,Real Sociedad,217,0,29,0.0,0.01,0,0.11,3,0,0.00,0.01,0.00,La Liga
2,18,0.06,0,0.09,0.18,Takashi Inui,2.5,"DL,CC",1988,0.06,jp JPN,1.5,0.24,0,Eibar,"1,475",1,31,2.5,0.15,0,0.24,20,3,0.24,0.15,0.24,La Liga
2,9,0.60,0,0.13,0.09,Alexander Isak,5.5,DL,1999,0.60,se SWE,1.5,0.60,0,Real Sociedad,"1,055",7,19,5.5,0.47,0,0.60,27,1,0.68,0.47,0.68,La Liga
1,11,0.10,0,0.14,0.00,Isco,1.3,"DL,CC",1992,0.10,es ESP,1.3,0.27,0,Real Madrid,872,1,27,1.3,0.13,0,0.27,16,0,0.10,0.13,0.10,La Liga
1,2,0.00,0,0.00,0.00,Ander Iturraspe,0.0,CC,1989,0.00,es ESP,0.0,0.00,0,Espanyol,179,0,30,0.0,0.00,0,0.00,6,0,0.00,0.00,0.00,La Liga
2,9,0.22,0,0.21,0.34,Adnan Januzaj,0.8,"DL,CC",1995,0.22,be BEL,1.8,0.30,0,Real Sociedad,802,2,24,0.8,0.09,0,0.30,17,3,0.56,0.09,0.56,La Liga
5,11,0.10,0,0.15,0.41,Jason,1.1,CC,1994,0.10,es ESP,1.5,0.26,0,Getafe,877,1,25,1.1,0.11,0,0.26,11,4,0.51,0.11,0.51,La Liga
3,21,0.31,0,0.23,0.10,Joaquín,3.5,"CC,DL",1981,0.42,es ESP,4.3,0.53,2,Betis,"1,717",8,38,5.8,0.30,3,0.41,26,2,0.42,0.18,0.52,La Liga
3,23,0.09,1,0.10,0.09,Frenkie de Jong,1.1,CC,1997,0.09,nl NED,2.3,0.15,0,Barcelona,"1,993",2,22,1.1,0.05,0,0.15,26,2,0.18,0.05,0.18,La Liga
2,18,0.28,0,0.10,0.06,Luuk de Jong,6.8,DL,1990,0.28,nl NED,1.8,0.48,0,Sevilla,"1,617",5,28,6.8,0.38,0,0.48,24,1,0.33,0.38,0.33,La Liga
4,18,0.12,0,0.14,0.12,Joan Jordán,1.4,CC,1994,0.12,es ESP,2.4,0.23,0,Sevilla,"1,539",2,25,1.4,0.08,0,0.23,23,2,0.23,0.08,0.23,La Liga
4,18,0.56,0,0.05,0.00,Willian José,8.6,DL,1991,0.56,br BRA,0.9,0.58,0,Real Sociedad,"1,451",9,27,8.6,0.53,0,0.58,26,0,0.56,0.53,0.56,La Liga
5,23,0.39,0,0.09,0.09,Joselu,7.6,DL,1990,0.39,es ESP,2.2,0.43,0,Alavés,"2,059",9,29,7.6,0.33,0,0.43,26,2,0.48,0.33,0.48,La Liga
2,4,0.46,0,0.10,0.23,Luka Jović,2.3,DL,1997,0.46,rs SRB,0.5,0.63,0,Real Madrid,391,2,21,2.3,0.53,0,0.63,15,1,0.69,0.53,0.69,La Liga
0,1,0.00,0,0.00,0.00,Juanmi,0.2,"DL,CC",1993,0.00,es ESP,0.0,0.24,0,Betis,75,0,26,0.2,0.24,0,0.24,2,0,0.00,0.24,0.00,La Liga
1,3,0.00,0,0.00,0.00,David Juncà,0.0,DF,1993,0.00,es ESP,0.0,0.00,0,Celta Vigo,259,0,25,0.0,0.00,0,0.00,3,0,0.00,0.00,0.00,La Liga
2,20,0.05,0,0.04,0.00,Lago Junior,2.5,"CC,DL",1990,0.20,ci CIV,0.9,0.29,3,Mallorca,"1,765",4,28,4.7,0.24,3,0.17,24,0,0.05,0.13,0.20,La Liga
3,8,0.20,0,0.23,0.10,Vinicius Júnior,2.9,"DL,CC",2000,0.20,br BRA,2.3,0.52,0,Real Madrid,901,2,19,2.9,0.29,0,0.52,19,1,0.30,0.29,0.30,La Liga
1,2,0.30,1,0.08,0.00,Lee Kangin,0.5,"CC,DL",2001,0.30,kr KOR,0.3,0.22,0,Valencia,296,1,18,0.5,0.14,0,0.22,11,0,0.30,0.14,0.30,La Liga
1,2,0.00,0,0.02,0.00,Wilfrid Kaptoum,0.1,CC,1996,0.00,cm CMR,0.0,0.05,0,Betis,191,0,23,0.1,0.03,0,0.05,5,0,0.00,0.03,0.00,La Liga
2,3,0.17,0,0.17,0.51,Kenedy,0.8,"CC,DF",1996,0.17,br BRA,1.0,0.30,0,Getafe,527,1,23,0.8,0.14,0,0.30,16,3,0.68,0.14,0.68,La Liga
2,12,0.25,0,0.02,0.00,Kike,3.6,DL,1989,0.25,es ESP,0.2,0.32,0,Eibar,"1,089",3,29,3.6,0.30,0,0.32,17,0,0.25,0.30,0.25,La Liga
0,4,0.27,0,0.00,0.00,Kenan Kodro,0.2,"DL,CC",1993,0.27,ba BIH,0.0,0.06,0,Athletic Bilbao,330,1,25,0.2,0.05,0,0.06,7,0,0.27,0.05,0.27,La Liga
4,21,0.10,0,0.20,0.19,Koke,1.3,CC,1992,0.10,es ESP,4.1,0.27,0,Atlético Madrid,"1,869",2,27,1.5,0.07,0,0.26,22,4,0.29,0.06,0.29,La Liga
4,14,0.07,0,0.01,0.00,Geoffrey Kondogbia,0.6,CC,1993,0.07,cf CTA,0.1,0.05,0,Valencia,"1,217",1,26,0.6,0.04,0,0.05,17,0,0.07,0.04,0.07,La Liga
3,15,0.06,0,0.04,0.06,Jules Koundé,1.3,DF,1998,0.06,fr FRA,0.5,0.12,0,Sevilla,"1,406",1,20,1.3,0.09,0,0.12,19,1,0.13,0.09,0.13,La Liga
0,1,0.00,0,0.17,0.00,Leonardo Koutris,0.0,DF,1995,0.00,gr GRE,0.2,0.17,0,Mallorca,93,0,24,0.0,0.00,0,0.17,2,0,0.00,0.00,0.00,La Liga
1,3,0.00,0,0.09,0.00,İsmail Köybaşı,0.0,"DF,DL",1989,0.00,tr TUR,0.2,0.10,0,Granada,225,0,30,0.0,0.01,0,0.10,3,0,0.00,0.01,0.00,La Liga
1,23,0.14,0,0.18,0.24,Toni Kroos,2.4,CC,1990,0.14,de GER,3.7,0.29,0,Real Madrid,"1,879",3,29,2.4,0.11,0,0.29,24,5,0.38,0.11,0.38,La Liga
2,13,0.19,0,0.12,0.13,Takefusa Kubo,1.4,"CC,DL",2001,0.19,jp JPN,1.9,0.21,0,Mallorca,"1,431",3,18,1.4,0.09,0,0.21,24,2,0.31,0.09,0.31,La Liga
7,21,0.05,1,0.03,0.10,Víctor Laguardia,0.7,DF,1989,0.05,es ESP,0.6,0.06,0,Alavés,"1,844",1,29,0.7,0.03,0,0.06,21,2,0.15,0.03,0.15,La Liga
0,1,0.00,0,0.00,0.00,Diego Lainez,0.1,CC,2000,0.00,mx MEX,0.0,0.07,0,Betis,207,0,19,0.1,0.06,0,0.07,10,0,0.00,0.06,0.00,La Liga
0,1,0.00,0,0.03,0.00,Larra,0.1,"DL,CC",1997,0.00,es ESP,0.1,0.07,0,Athletic Bilbao,178,0,21,0.1,0.03,0,0.07,9,0,0.00,0.03,0.00,La Liga
0,1,0.00,0,0.00,0.00,Toni Lato,0.1,CC,1997,0.00,es ESP,0.0,0.13,0,Osasuna,79,0,21,0.1,0.13,0,0.13,1,0,0.00,0.13,0.00,La Liga
5,16,0.06,0,0.00,0.00,Robin Le Normand,0.6,DF,1996,0.06,fr FRA,0.0,0.03,0,Real Sociedad,"1,552",1,22,0.6,0.03,0,0.03,21,0,0.06,0.03,0.06,La Liga
2,14,0.23,0,0.08,0.00,Wu Lei,3.3,"DL,CC",1991,0.23,cn CHN,1.0,0.34,0,Espanyol,"1,151",3,27,3.3,0.26,0,0.34,22,0,0.23,0.26,0.23,La Liga
0,4,0.00,0,0.06,0.22,Iñigo Lekue,0.1,"DF,DL",1993,0.00,es ESP,0.3,0.08,0,Athletic Bilbao,411,0,26,0.1,0.02,0,0.08,10,1,0.22,0.02,0.22,La Liga
1,9,0.00,0,0.04,0.00,Thomas Lemar,0.4,CC,1995,0.00,fr FRA,0.4,0.09,0,Atlético Madrid,808,0,23,0.4,0.04,0,0.09,17,0,0.00,0.04,0.00,La Liga
9,19,0.11,2,0.03,0.05,Clément Lenglet,0.8,DF,1995,0.11,fr FRA,0.6,0.07,0,Barcelona,"1,689",2,24,0.8,0.04,0,0.07,19,1,0.16,0.04,0.16,La Liga
3,18,0.06,0,0.16,0.00,Pedro León,1.7,"CC,DL",1986,0.06,es ESP,2.7,0.27,0,Eibar,"1,460",1,32,1.7,0.10,0,0.27,23,0,0.06,0.10,0.06,La Liga
2,4,0.19,0,0.00,0.00,Sergio León,2.0,DL,1989,0.19,es ESP,0.0,0.38,0,Levante,467,1,30,2.0,0.38,0,0.38,15,0,0.19,0.38,0.19,La Liga
2,2,0.00,0,0.05,0.00,Lillo,0.0,DF,1989,0.00,es ESP,0.1,0.06,0,Osasuna,193,0,30,0.0,0.01,0,0.06,4,0,0.00,0.01,0.00,La Liga
4,19,0.00,1,0.01,0.06,Diego Llorente,0.6,DF,1993,0.00,es ESP,0.1,0.04,0,Real Sociedad,"1,608",0,25,0.6,0.03,0,0.04,19,1,0.06,0.03,0.06,La Liga
4,8,0.12,0,0.00,0.00,Marcos Llorente,0.7,CC,1995,0.12,es ESP,0.0,0.09,0,Atlético Madrid,723,1,24,0.7,0.09,0,0.09,18,0,0.12,0.09,0.12,La Liga
1,17,0.00,0,0.03,0.00,Stanislav Lobotka,0.2,CC,1994,0.00,sk SVK,0.4,0.04,0,Celta Vigo,"1,391",0,24,0.2,0.01,0,0.04,17,0,0.00,0.01,0.00,La Liga
5,20,0.05,1,0.08,0.11,Renan Lodi,0.6,DF,1998,0.05,br BRA,1.5,0.11,0,Atlético Madrid,"1,671",1,21,0.6,0.03,0,0.11,23,2,0.16,0.03,0.16,La Liga
0,1,0.00,0,0.00,0.00,Rony Lopes,0.1,"DL,CC",1995,0.00,pt POR,0.0,0.15,0,Sevilla,87,0,23,0.1,0.15,0,0.15,3,0,0.00,0.15,0.00,La Liga
0,10,0.00,0,0.17,0.00,Adrián López,1.1,"DL,CC",1988,0.00,es ESP,1.7,0.28,0,Osasuna,884,0,31,1.1,0.11,0,0.28,17,0,0.00,0.11,0.00,La Liga
4,18,0.12,1,0.05,0.12,David López,1.1,"DF,CC",1989,0.12,es ESP,0.8,0.11,0,Espanyol,"1,498",2,29,1.1,0.06,0,0.11,21,2,0.24,0.06,0.24,La Liga
4,27,0.00,1,0.00,0.00,Diego López,0.0,PO,1981,0.00,es ESP,0.0,0.00,0,Espanyol,"2,422",0,37,0.0,0.00,0,0.00,27,0,0.00,0.00,0.00,La Liga
5,13,0.00,1,0.06,0.00,Javi López,0.1,DF,1986,0.00,es ESP,0.7,0.06,0,Espanyol,"1,123",0,33,0.1,0.01,0,0.06,14,0,0.00,0.01,0.00,La Liga
1,3,0.00,0,0.00,0.00,Lluis López,0.1,DF,1997,0.00,es ESP,0.0,0.04,0,Espanyol,299,0,22,0.1,0.04,0,0.04,4,0,0.00,0.04,0.00,La Liga
6,16,0.08,0,0.16,0.23,Unai López,0.5,CC,1995,0.08,es ESP,2.1,0.20,0,Athletic Bilbao,"1,154",1,23,0.5,0.04,0,0.20,17,3,0.31,0.04,0.31,La Liga
0,0,8.18,0,0.00,0.00,Iker Losada,0.0,"CC,DL",2001,8.18,es ESP,0.0,0.24,0,Celta Vigo,11,1,17,0.0,0.24,0,0.24,2,0,8.18,0.24,8.18,La Liga
0,0,0.00,0,0.00,0.00,Pol Lozano,0.0,CC,1999,0.00,es ESP,0.0,0.00,0,Espanyol,17,0,19,0.0,0.00,0,0.00,1,0,0.00,0.00,0.00,La Liga
4,19,0.00,0,0.05,0.00,José Luis Gayà,0.3,DF,1995,0.00,es ESP,1.0,0.07,0,Valencia,"1,678",0,24,0.3,0.01,0,0.07,20,0,0.00,0.01,0.00,La Liga
2,22,0.09,0,0.17,0.09,José Luis Morales,3.5,"DL,CC",1987,0.09,es ESP,3.7,0.33,0,Levante,"1,964",2,32,3.5,0.16,0,0.33,27,2,0.18,0.16,0.18,La Liga
3,13,0.32,0,0.15,0.19,Darwin Machís,3.3,"DL,CC",1993,0.38,ve VEN,2.3,0.40,1,Granada,"1,425",6,26,4.0,0.26,1,0.35,26,3,0.51,0.21,0.57,La Liga
4,8,0.12,0,0.00,0.00,Lisandro Magallán,0.2,DF,1993,0.12,ar ARG,0.0,0.03,0,Alavés,745,1,25,0.2,0.03,0,0.03,11,0,0.12,0.03,0.12,La Liga
5,24,0.09,0,0.01,0.00,Nemanja Maksimović,2.2,CC,1995,0.09,rs SRB,0.4,0.11,0,Getafe,"2,114",2,24,2.2,0.09,0,0.11,25,0,0.09,0.09,0.09,La Liga
7,18,0.00,0,0.09,0.06,Hugo Mallo,0.1,DF,1991,0.00,es ESP,1.5,0.09,0,Celta Vigo,"1,570",0,28,0.1,0.01,0,0.09,21,1,0.06,0.01,0.06,La Liga
8,22,0.00,0,0.01,0.00,Aïssa Mandi,0.7,DF,1991,0.00,dz ALG,0.3,0.05,0,Betis,"1,948",0,27,0.7,0.03,0,0.05,22,0,0.00,0.03,0.00,La Liga
1,4,0.00,0,0.00,0.00,Eliaquim Mangala,0.2,DF,1991,0.00,fr FRA,0.0,0.04,0,Valencia,315,0,28,0.2,0.04,0,0.04,4,0,0.00,0.04,0.00,La Liga
2,11,0.00,0,0.17,0.19,Marcelo,0.3,DF,1988,0.00,br BRA,1.8,0.20,0,Real Madrid,940,0,31,0.3,0.03,0,0.20,11,2,0.19,0.03,0.19,La Liga
0,3,0.00,0,0.00,0.00,Óscar de Marcos,0.0,DL,1989,0.00,es ESP,0.0,0.00,0,Athletic Bilbao,188,0,30,0.0,0.00,0,0.00,4,0,0.00,0.00,0.00,La Liga
0,11,0.00,0,0.00,0.00,José María Giménez,0.3,DF,1995,0.00,uy URU,0.0,0.03,0,Atlético Madrid,990,0,24,0.3,0.03,0,0.03,11,0,0.00,0.03,0.00,La Liga
0,0,4.29,0,0.17,0.00,Mariano,0.4,DL,1993,4.29,do DOM,0.0,1.93,0,Real Madrid,21,1,25,0.4,1.76,0,1.93,2,0,4.29,1.76,4.29,La Liga
0,4,0.00,0,0.00,0.00,Adrián Marín,0.2,DF,1997,0.00,es ESP,0.0,0.04,0,Alavés,338,0,22,0.2,0.04,0,0.04,4,0,0.00,0.04,0.00,La Liga
0,1,0.00,0,0.00,0.00,Guillermo Maripán,0.0,DF,1994,0.00,cl CHI,0.0,0.00,0,Alavés,90,0,25,0.0,0.00,0,0.00,1,0,0.00,0.00,0.00,La Liga
4,19,0.38,0,0.06,0.00,Roger Martí,5.9,DL,1991,0.59,es ESP,1.1,0.55,4,Levante,"1,668",11,28,9.0,0.48,4,0.38,26,0,0.38,0.32,0.59,La Liga
0,1,0.00,0,0.00,0.00,Daniel Martín,0.0,PO,1998,0.00,es ESP,0.0,0.00,0,Betis,170,0,21,0.0,0.00,0,0.00,2,0,0.00,0.00,0.00,La Liga
1,0,0.00,0,0.00,0.00,Álex Martínez,0.1,DF,1990,0.00,es ESP,0.0,0.34,0,Granada,14,0,28,0.1,0.34,0,0.34,2,0,0.00,0.34,0.00,La Liga
7,24,0.00,0,0.04,0.04,Iñigo Martínez,1.5,DF,1991,0.00,es ESP,0.9,0.10,0,Athletic Bilbao,"2,160",0,28,1.5,0.06,0,0.10,24,1,0.04,0.06,0.04,La Liga
0,0,0.00,0,0.00,0.00,Pablo Martínez,0.0,CC,1998,0.00,es ESP,0.0,0.00,0,Levante,17,0,21,0.0,0.00,0,0.00,3,0,0.00,0.00,0.00,La Liga
2,27,0.00,0,0.00,0.00,Jordi Masip,0.0,PO,1989,0.00,es ESP,0.0,0.00,0,Valladolid,"2,430",0,30,0.0,0.00,0,0.00,27,0,0.00,0.00,0.00,La Liga
10,23,0.28,0,0.09,0.14,Jaime Mata,5.1,DL,1988,0.37,es ESP,2.0,0.40,2,Getafe,"1,954",8,30,6.6,0.31,2,0.33,24,3,0.41,0.24,0.51,La Liga
2,17,0.30,0,0.06,0.06,Borja Mayoral,5.2,DL,1997,0.30,es ESP,1.1,0.38,0,Levante,"1,486",5,22,5.2,0.31,0,0.38,23,1,0.36,0.31,0.36,La Liga
0,7,0.00,0,0.04,0.00,Óscar Melendo,0.1,"CC,DL",1997,0.00,es ESP,0.3,0.06,0,Espanyol,644,0,21,0.1,0.02,0,0.06,14,0,0.00,0.02,0.00,La Liga
3,10,0.11,0,0.04,0.11,Gonzalo Melero,1.1,CC,1994,0.11,es ESP,0.4,0.16,0,Levante,838,1,25,1.1,0.12,0,0.16,16,1,0.21,0.12,0.21,La Liga
1,12,0.27,0,0.10,0.27,Arthur Melo,1.3,CC,1996,0.27,br BRA,1.1,0.21,0,Barcelona,"1,006",3,22,1.3,0.11,0,0.21,16,3,0.54,0.11,0.54,La Liga
2,11,0.00,0,0.05,0.09,Brais Méndez,1.3,"CC,DL",1997,0.00,es ESP,0.6,0.16,0,Celta Vigo,"1,043",0,22,1.3,0.11,0,0.16,22,1,0.09,0.11,0.09,La Liga
1,2,0.36,0,0.01,0.00,Édgar Méndez,0.1,CC,1991,0.36,es ESP,0.0,0.06,0,Alavés,250,1,28,0.1,0.04,0,0.06,5,0,0.36,0.04,0.36,La Liga
6,12,0.00,1,0.11,0.16,Ferland Mendy,0.5,DF,1995,0.00,fr FRA,1.4,0.15,0,Real Madrid,"1,128",0,24,0.5,0.04,0,0.15,16,2,0.16,0.04,0.16,La Liga
8,9,0.00,1,0.02,0.00,Fran Mérida,0.3,CC,1990,0.00,es ESP,0.2,0.05,0,Osasuna,926,0,29,0.3,0.03,0,0.05,17,0,0.00,0.03,0.00,La Liga
5,25,0.12,0,0.07,0.04,Mikel Merino,2.3,CC,1996,0.12,es ESP,1.8,0.16,0,Real Sociedad,"2,252",3,23,2.3,0.09,0,0.16,26,1,0.16,0.09,0.16,La Liga
0,1,0.00,0,0.04,0.00,Sabin Merino,0.0,DL,1992,0.00,es ESP,0.0,0.04,0,Leganés,78,0,27,0.0,0.00,0,0.04,2,0,0.00,0.00,0.00,La Liga
8,18,0.06,0,0.08,0.11,Roque Mesa,0.9,CC,1989,0.06,es ESP,1.5,0.13,0,Leganés,"1,597",1,30,0.9,0.05,0,0.13,20,2,0.17,0.05,0.17,La Liga
3,21,0.76,0,0.48,0.57,Lionel Messi,11.1,DL,1987,0.90,ar ARG,10.1,1.12,3,Barcelona,"1,890",19,32,13.4,0.64,3,1.01,22,12,1.33,0.53,1.48,La Liga
4,22,0.00,0,0.09,0.05,Míchel,0.3,CC,1988,0.05,es ESP,1.9,0.15,1,Valladolid,"1,788",1,31,1.1,0.06,1,0.11,24,1,0.05,0.02,0.10,La Liga
0,0,0.00,0,0.00,0.00,Miguel,0.0,DL,1999,0.00,es ESP,0.0,0.00,0,Valladolid,29,0,19,0.0,0.00,0,0.00,3,0,0.00,0.00,0.00,La Liga
2,7,0.00,0,0.00,0.00,Éder Militão,0.1,DF,1998,0.00,br BRA,0.0,0.01,0,Real Madrid,632,0,21,0.1,0.01,0,0.01,9,0,0.00,0.01,0.00,La Liga
4,15,0.20,0,0.11,0.13,Santi Mina,4.7,DL,1995,0.20,es ESP,1.6,0.41,0,Celta Vigo,"1,383",3,23,4.7,0.31,0,0.41,24,2,0.33,0.31,0.33,La Liga
3,22,0.00,0,0.09,0.14,Jorge Miramón,0.3,DF,1989,0.00,es ESP,1.9,0.10,0,Levante,"1,930",0,30,0.3,0.01,0,0.10,24,3,0.14,0.01,0.14,La Liga
3,14,0.20,1,0.15,0.27,Luka Modrić,1.8,CC,1985,0.20,hr CRO,2.2,0.27,0,Real Madrid,"1,354",3,33,1.8,0.12,0,0.27,22,4,0.47,0.12,0.47,La Liga
4,19,0.19,1,0.16,0.13,Jorge Molina,3.7,DL,1982,0.31,es ESP,2.5,0.49,2,Getafe,"1,430",5,37,5.2,0.33,2,0.39,24,2,0.31,0.23,0.44,La Liga
4,10,0.09,0,0.01,0.00,Jon Moncayola,0.5,"CC,DF",1998,0.09,es ESP,0.2,0.06,0,Osasuna,971,1,21,0.5,0.05,0,0.06,18,0,0.09,0.05,0.09,La Liga
1,20,0.10,0,0.04,0.00,Nacho Monreal,1.8,DF,1986,0.10,es ESP,0.7,0.13,0,Real Sociedad,"1,755",2,33,1.8,0.09,0,0.13,20,0,0.10,0.09,0.10,La Liga
5,11,0.10,0,0.09,0.41,Ángel Montoro,1.1,CC,1988,0.10,es ESP,0.9,0.21,0,Granada,883,1,31,1.1,0.12,0,0.21,12,4,0.51,0.12,0.51,La Liga
5,19,0.39,1,0.18,0.06,Álvaro Morata,9.1,DL,1992,0.44,es ESP,3.2,0.77,1,Atlético Madrid,"1,623",8,26,10.7,0.59,2,0.69,23,1,0.44,0.51,0.50,La Liga
2,8,0.00,0,0.02,0.00,Alberto Moreno,0.7,DF,1992,0.00,es ESP,0.2,0.12,0,Villarreal,684,0,27,0.7,0.10,0,0.12,9,0,0.00,0.10,0.00,La Liga
3,20,0.00,0,0.08,0.20,Álex Moreno,1.8,DF,1993,0.00,es ESP,1.5,0.17,0,Betis,"1,792",0,26,1.8,0.09,0,0.17,23,4,0.20,0.09,0.20,La Liga
4,24,0.48,0,0.18,0.13,Gerard Moreno,9.6,"DL,CC",1992,0.48,es ESP,4.1,0.63,0,Villarreal,"2,063",11,27,10.3,0.45,1,0.60,25,3,0.61,0.42,0.61,La Liga
0,1,0.00,0,0.13,0.00,Manu Morlanes,0.0,CC,1999,0.00,es ESP,0.1,0.13,0,Villarreal,90,0,20,0.0,0.00,0,0.13,2,0,0.00,0.00,0.00,La Liga
2,16,0.52,1,0.12,0.12,Loren Morón,6.9,DL,1993,0.52,es ESP,2.1,0.52,0,Betis,"1,550",9,25,6.9,0.40,0,0.52,26,2,0.64,0.40,0.64,La Liga
0,0,0.00,0,0.00,0.00,Toni Moya,0.0,CC,1998,0.00,es ESP,0.0,0.00,0,Atlético Madrid,3,0,21,0.0,0.00,0,0.00,1,0,0.00,0.00,0.00,La Liga
3,19,0.00,0,0.05,0.00,Javi Moyano,0.3,DF,1986,0.00,es ESP,0.8,0.06,0,Valladolid,"1,601",0,33,0.3,0.01,0,0.06,19,0,0.00,0.01,0.00,La Liga
0,17,0.23,1,0.12,0.11,Iker Muniain,3.7,"DL,CC",1992,0.23,es ESP,2.0,0.33,0,Athletic Bilbao,"1,579",4,26,3.7,0.21,0,0.33,20,2,0.34,0.21,0.34,La Liga
0,7,0.00,0,0.00,0.00,Aihen Muñoz,0.0,DF,1997,0.00,es ESP,0.0,0.00,0,Real Sociedad,626,0,21,0.0,0.00,0,0.00,8,0,0.00,0.00,0.00,La Liga
0,1,0.00,0,0.00,0.00,Javier Muñoz,0.0,CC,1995,0.00,es ESP,0.0,0.00,0,Alavés,53,0,24,0.0,0.00,0,0.00,1,0,0.00,0.00,0.00,La Liga
2,8,0.00,0,0.00,0.00,Jeison Murillo,0.0,DF,1992,0.00,co COL,0.0,0.00,0,Celta Vigo,720,0,27,0.0,0.00,0,0.00,8,0,0.00,0.00,0.00,La Liga
3,4,0.23,0,0.06,0.00,Nacho,0.3,DF,1990,0.23,es ESP,0.3,0.13,0,Real Madrid,393,1,29,0.3,0.07,0,0.13,5,0,0.23,0.07,0.23,La Liga
2,14,0.00,0,0.13,0.15,Nacho,0.2,DF,1989,0.00,es ESP,1.7,0.14,0,Valladolid,"1,178",0,30,0.2,0.01,0,0.14,14,2,0.15,0.01,0.15,La Liga
7,14,0.00,1,0.00,0.07,Naldo,0.3,DF,1988,0.00,br BRA,0.0,0.03,0,Espanyol,"1,232",0,30,0.3,0.02,0,0.03,16,1,0.07,0.02,0.07,La Liga
1,3,0.00,0,0.00,0.00,Marc Navarro,0.2,DF,1995,0.00,es ESP,0.0,0.08,0,Leganés,219,0,24,0.2,0.08,0,0.08,4,0,0.00,0.08,0.00,La Liga
8,17,0.00,0,0.01,0.00,Ximo Navarro,0.3,DF,1990,0.00,es ESP,0.1,0.03,0,Alavés,"1,492",0,29,0.3,0.02,0,0.03,17,0,0.00,0.02,0.00,La Liga
4,27,0.00,0,0.17,0.15,Jesús Navas,0.2,DF,1985,0.00,es ESP,4.7,0.18,0,Sevilla,"2,429",0,33,0.2,0.01,0,0.18,27,4,0.15,0.01,0.15,La Liga
1,4,0.00,0,0.02,0.00,Raúl Navas,0.0,DF,1988,0.00,es ESP,0.1,0.02,0,Osasuna,395,0,31,0.0,0.00,0,0.02,5,0,0.00,0.00,0.00,La Liga
0,1,0.00,0,0.00,0.00,Neto,0.0,PO,1989,0.00,br BRA,0.0,0.00,0,Barcelona,90,0,30,0.0,0.00,0,0.00,1,0,0.00,0.00,0.00,La Liga
1,16,0.00,0,0.01,0.00,Carlos Neva,0.4,DF,1996,0.00,es ESP,0.2,0.04,0,Granada,"1,450",0,23,0.4,0.03,0,0.04,17,0,0.00,0.03,0.00,La Liga
6,26,0.12,0,0.05,0.00,Saúl Ñíguez,2.4,"CC,DF",1994,0.12,es ESP,1.4,0.15,0,Atlético Madrid,"2,340",3,24,2.4,0.09,0,0.15,26,0,0.12,0.09,0.12,La Liga
1,0,6.43,0,0.00,0.00,Fernando Niño,0.3,DL,2000,6.43,es ESP,0.0,1.64,0,Villarreal,14,1,18,0.3,1.64,0,1.64,2,0,6.43,1.64,6.43,La Liga
0,12,0.30,0,0.07,0.00,Nolito,2.2,DL,1986,0.30,es ESP,0.7,0.29,0,Sevilla,904,3,32,2.2,0.22,0,0.29,15,0,0.30,0.22,0.30,La Liga
5,10,0.00,0,0.00,0.00,Unai Núñez,0.1,DF,1997,0.00,es ESP,0.0,0.02,0,Athletic Bilbao,953,0,22,0.1,0.01,0,0.02,12,0,0.00,0.01,0.00,La Liga
10,23,0.10,0,0.04,0.00,Allan Nyom,0.6,"DF,CC",1988,0.10,cm CMR,0.8,0.07,0,Getafe,"1,802",2,31,0.6,0.03,0,0.07,25,0,0.10,0.03,0.10,La Liga
0,27,0.00,0,0.00,0.00,Jan Oblak,0.0,PO,1993,0.00,si SVN,0.0,0.00,0,Atlético Madrid,"2,406",0,26,0.0,0.00,0,0.00,27,0,0.00,0.00,0.00,La Liga
8,22,0.38,1,0.09,0.09,Lucas Ocampos,5.0,DL,1994,0.47,ar ARG,1.9,0.40,2,Sevilla,"1,917",10,25,6.5,0.31,2,0.33,22,2,0.47,0.24,0.56,La Liga
3,4,0.00,1,0.17,0.26,Álvaro Odriozola,0.2,DF,1995,0.00,es ESP,0.7,0.21,0,Real Madrid,343,0,23,0.2,0.04,0,0.21,4,1,0.26,0.04,0.26,La Liga
4,25,0.04,0,0.12,0.12,Lucas Olaza,0.8,DF,1994,0.04,uy URU,3.1,0.16,0,Celta Vigo,"2,250",1,25,0.8,0.03,0,0.16,25,3,0.16,0.03,0.16,La Liga
1,27,0.04,0,0.01,0.00,Kiko Olivas,0.8,DF,1988,0.04,es ESP,0.2,0.04,0,Valladolid,"2,430",1,30,0.8,0.03,0,0.04,27,0,0.04,0.03,0.04,La Liga
7,17,0.06,1,0.01,0.00,Paulo Oliveira,0.9,DF,1992,0.06,pt POR,0.1,0.06,0,Eibar,"1,590",1,27,0.9,0.05,0,0.06,19,0,0.06,0.05,0.06,La Liga
4,10,0.00,1,0.04,0.10,Mathías Olivera,0.4,DF,1997,0.00,uy URU,0.4,0.08,0,Getafe,935,0,21,0.4,0.04,0,0.08,13,1,0.10,0.04,0.10,La Liga
5,18,0.06,0,0.01,0.00,Kenneth Omeruo,0.6,DF,1993,0.06,ng NGA,0.1,0.04,0,Leganés,"1,601",1,25,0.6,0.03,0,0.04,19,0,0.06,0.03,0.06,La Liga
1,3,0.41,0,0.27,0.21,Javier Ontiveros,1.8,"DL,CC",1997,0.41,es ESP,1.3,0.63,0,Villarreal,439,2,21,1.8,0.36,0,0.63,21,1,0.62,0.36,0.62,La Liga
8,24,0.17,1,0.18,0.26,Fabián Orellana,3.5,"CC,DL",1986,0.30,cl CHI,4.3,0.47,3,Eibar,"2,080",7,33,6.5,0.28,4,0.33,24,6,0.43,0.15,0.56,La Liga
3,25,0.17,0,0.20,0.25,Mikel Oyarzabal,4.5,"DL,CC",1997,0.33,es ESP,4.7,0.51,4,Real Sociedad,"2,162",8,22,7.5,0.31,4,0.38,26,6,0.42,0.19,0.58,La Liga
0,24,0.00,0,0.00,0.00,Fernando Pacheco,0.0,PO,1992,0.00,es ESP,0.0,0.00,0,Alavés,"2,160",0,27,0.0,0.00,0,0.00,24,0,0.00,0.00,0.00,La Liga
6,25,0.12,1,0.13,0.12,Daniel Parejo,1.5,CC,1989,0.33,es ESP,3.1,0.34,5,Valencia,"2,210",8,30,5.3,0.22,5,0.19,25,3,0.24,0.06,0.45,La Liga
10,21,0.10,0,0.05,0.00,Thomas Partey,0.9,CC,1993,0.10,gh GHA,0.9,0.09,0,Atlético Madrid,"1,840",2,26,0.9,0.04,0,0.09,24,0,0.10,0.04,0.10,La Liga
5,23,0.04,0,0.00,0.00,Gabriel Paulista,0.6,DF,1990,0.04,br BRA,0.0,0.03,0,Valencia,"2,086",1,28,0.6,0.03,0,0.03,24,0,0.04,0.03,0.04,La Liga
1,9,0.00,0,0.07,0.00,Alfonso Pedraza,0.4,DF,1996,0.00,es ESP,0.6,0.11,0,Betis,796,0,23,0.4,0.04,0,0.11,12,0,0.00,0.04,0.00,La Liga
0,1,0.00,0,0.00,0.00,Marc Pedraza,0.0,CC,1987,0.00,es ESP,0.0,0.00,0,Mallorca,74,0,32,0.0,0.00,0,0.00,2,0,0.00,0.00,0.00,La Liga
1,9,0.11,0,0.04,0.00,Pedrosa,1.5,"DF,CC",1998,0.11,es ESP,0.4,0.20,0,Espanyol,854,1,21,1.5,0.16,0,0.20,14,0,0.11,0.16,0.11,La Liga
5,15,0.06,0,0.07,0.06,Rubén Peña,0.6,DF,1991,0.06,es ESP,1.1,0.11,0,Villarreal,"1,415",1,28,0.6,0.04,0,0.11,19,1,0.13,0.04,0.13,La Liga
0,0,0.00,0,0.00,0.00,Luis Perea,0.0,"DL,CC",1997,0.00,es ESP,0.0,0.00,0,Osasuna,19,0,21,0.0,0.00,0,0.00,2,0,0.00,0.00,0.00,La Liga
2,10,0.00,0,0.04,0.00,Victor Perea,0.1,DF,2000,0.00,es ESP,0.4,0.05,0,Espanyol,897,0,19,0.1,0.01,0,0.05,13,0,0.00,0.01,0.00,La Liga
0,0,0.00,0,0.00,0.00,Gonzalo Pereira Cejudo,0.0,DF,1997,0.00,es ESP,0.0,0.00,0,Levante,12,0,22,0.0,0.00,0,0.00,1,0,0.00,0.00,0.00,La Liga
0,5,0.19,0,0.06,0.38,Carles Pérez,1.0,DL,1998,0.19,es ESP,0.3,0.26,0,Barcelona,473,1,21,1.0,0.19,0,0.26,10,2,0.57,0.19,0.57,La Liga
1,5,0.18,0,0.04,0.00,Iñigo Pérez,0.8,"CC,DF",1988,0.18,es ESP,0.3,0.18,0,Osasuna,514,1,31,0.8,0.13,0,0.18,12,0,0.18,0.13,0.18,La Liga
0,2,0.00,0,0.00,0.00,Juan Pérez,0.0,PO,1996,0.00,es ESP,0.0,0.00,0,Osasuna,180,0,23,0.0,0.00,0,0.00,2,0,0.00,0.00,0.00,La Liga
3,21,0.28,0,0.22,0.23,Lucas Pérez,5.7,DL,1988,0.51,es ESP,4.7,0.66,5,Alavés,"1,940",11,30,9.5,0.44,5,0.48,26,5,0.51,0.26,0.74,La Liga
6,17,0.00,0,0.01,0.00,Rubén Pérez,0.3,CC,1989,0.00,es ESP,0.1,0.02,0,Leganés,"1,479",0,30,0.3,0.02,0,0.02,17,0,0.00,0.02,0.00,La Liga
0,0,0.00,0,0.00,0.00,Pablo Piatti,0.1,"DF,CC",1989,0.00,ar ARG,0.0,0.14,0,Espanyol,53,0,30,0.1,0.14,0,0.14,3,0,0.00,0.14,0.00,La Liga
0,1,0.00,0,0.00,0.00,Cristiano Piccini,0.1,DF,1992,0.00,it ITA,0.0,0.09,0,Valencia,75,0,26,0.1,0.09,0,0.09,2,0,0.00,0.09,0.00,La Liga
3,12,0.10,0,0.04,0.00,Tomás Pina Isla,0.8,CC,1987,0.10,es ESP,0.4,0.12,0,Alavés,900,1,31,0.8,0.08,0,0.12,13,0,0.10,0.08,0.10,La Liga
1,1,0.00,0,0.03,0.00,Pipa,0.4,"DF,CC",1998,0.00,es ESP,0.0,0.32,0,Espanyol,116,0,21,0.4,0.29,0,0.32,2,0,0.00,0.29,0.00,La Liga
11,25,0.04,0,0.02,0.00,Gerard Piqué,1.6,DF,1987,0.04,es ESP,0.5,0.08,0,Barcelona,"2,221",1,32,1.6,0.06,0,0.08,25,0,0.04,0.06,0.04,La Liga
3,22,0.14,0,0.12,0.09,Óscar Plano,3.9,CC,1991,0.14,es ESP,2.6,0.30,0,Valladolid,"1,966",3,28,3.9,0.18,0,0.30,27,2,0.23,0.18,0.23,La Liga
1,5,0.12,0,0.11,0.12,Pere Pons,0.2,CC,1993,0.12,es ESP,0.9,0.13,0,Alavés,732,1,26,0.2,0.03,0,0.13,22,1,0.25,0.03,0.25,La Liga
1,7,0.00,0,0.02,0.00,Pedro Porro,0.0,"DF,CC",1999,0.00,es ESP,0.2,0.03,0,Valladolid,734,0,19,0.0,0.00,0,0.03,13,0,0.00,0.00,0.00,La Liga
2,3,0.00,0,0.18,0.27,Francisco Portillo,0.3,CC,1990,0.00,es ESP,0.7,0.25,0,Getafe,335,0,29,0.3,0.08,0,0.25,13,1,0.27,0.08,0.27,La Liga
5,19,0.35,0,0.25,0.35,Portu,4.2,"DL,CC",1992,0.35,es ESP,5.0,0.50,0,Real Sociedad,"1,780",7,27,4.9,0.25,1,0.46,24,7,0.71,0.21,0.71,La Liga
5,20,0.05,0,0.01,0.00,Sergio Postigo,0.6,DF,1988,0.05,es ESP,0.2,0.04,0,Levante,"1,752",1,30,0.6,0.03,0,0.04,20,0,0.05,0.03,0.05,La Liga
0,0,0.00,0,0.00,0.00,Darío Poveda,0.1,DL,1997,0.00,es ESP,0.0,1.89,0,Atlético Madrid,7,0,22,0.1,1.89,0,1.89,1,0,0.00,1.89,0.00,La Liga
0,5,0.00,0,0.05,0.18,Alejandro Pozo Pozo,0.0,DF,1999,0.00,es ESP,0.3,0.05,0,Mallorca,513,0,20,0.0,0.00,0,0.05,8,1,0.18,0.00,0.18,La Liga
0,0,0.00,0,0.00,0.00,Alejandro Pozo Pozo,0.0,"DL,CC",1999,0.00,es ESP,0.0,0.00,0,Sevilla,34,0,20,0.0,0.00,0,0.00,3,0,0.00,0.00,0.00,La Liga
1,0,0.00,0,0.00,0.00,Abdón Prats,0.5,"DL,CC",1992,0.00,es ESP,0.0,0.69,0,Mallorca,167,0,26,1.3,0.69,1,0.28,13,0,0.00,0.28,0.00,La Liga
1,0,,0,,,Andrés Prieto,,PO,1993,,es ESP,,,0,Espanyol,,0,25,,,0,,1,0,,,,La Liga
5,19,0.25,0,0.04,0.00,Antonio Puertas,5.9,"DL,CC",1992,0.25,es ESP,0.9,0.33,0,Granada,"1,820",5,27,5.9,0.29,0,0.33,26,0,0.25,0.29,0.25,La Liga
0,0,0.00,0,0.69,0.00,Riqui Puig,0.0,CC,1999,0.00,es ESP,0.2,0.69,0,Barcelona,22,0,19,0.0,0.00,0,0.69,2,0,0.00,0.00,0.00,La Liga
2,8,0.00,0,0.03,0.00,Quini,0.2,DF,1989,0.00,es ESP,0.2,0.05,0,Granada,718,0,29,0.2,0.03,0,0.05,10,0,0.00,0.03,0.00,La Liga
5,15,0.00,0,0.09,0.13,Xavi Quintillà,0.2,DF,1996,0.00,es ESP,1.4,0.11,0,Villarreal,"1,373",0,22,0.2,0.02,0,0.11,16,2,0.13,0.02,0.13,La Liga
0,3,0.00,0,0.06,0.24,Quique,0.4,DL,1990,0.00,es ESP,0.2,0.16,0,Eibar,379,0,29,0.4,0.10,0,0.16,11,1,0.24,0.10,0.24,La Liga
2,16,0.06,0,0.04,0.00,Nemanja Radoja,0.2,CC,1993,0.06,rs SRB,0.7,0.05,0,Levante,"1,420",1,26,0.2,0.01,0,0.05,17,0,0.06,0.01,0.06,La Liga
2,17,0.12,0,0.07,0.06,Rafinha,1.4,CC,1993,0.12,br BRA,1.1,0.16,0,Celta Vigo,"1,457",2,26,1.4,0.08,0,0.16,19,1,0.19,0.08,0.19,La Liga
0,2,0.00,0,0.17,0.00,Rafinha,0.5,"DL,CC",1993,0.00,br BRA,0.4,0.40,0,Barcelona,187,0,26,0.5,0.23,0,0.40,3,0,0.00,0.23,0.00,La Liga
1,2,0.00,0,0.00,0.00,Baba Rahman,0.0,DF,1994,0.00,gh GHA,0.0,0.04,0,Mallorca,109,0,25,0.0,0.04,0,0.04,2,0,0.00,0.04,0.00,La Liga
6,23,0.05,1,0.01,0.00,Antonio Raillo,1.8,DF,1991,0.05,es ESP,0.1,0.09,0,Mallorca,"1,995",1,27,1.8,0.08,0,0.09,23,0,0.05,0.08,0.05,La Liga
2,10,0.00,0,0.07,0.28,Ivan Rakitić,1.4,CC,1988,0.00,hr CRO,0.7,0.20,0,Barcelona,963,0,31,1.4,0.14,0,0.20,21,3,0.28,0.14,0.28,La Liga
2,13,0.25,0,0.14,0.08,Sandro Ramírez,3.4,"DL,CC",1995,0.25,es ESP,1.7,0.48,0,Valladolid,"1,086",3,24,4.1,0.34,1,0.42,19,1,0.33,0.28,0.33,La Liga
1,6,0.20,0,0.00,0.00,Iván Ramis,0.2,DF,1984,0.20,es ESP,0.0,0.04,0,Eibar,458,1,34,0.2,0.04,0,0.04,7,0,0.20,0.04,0.20,La Liga
0,2,0.00,0,0.03,0.00,Adrián Ramos,0.5,DL,1986,0.00,co COL,0.1,0.22,0,Granada,222,0,33,0.5,0.19,0,0.22,7,0,0.00,0.19,0.00,La Liga
7,25,0.08,0,0.00,0.00,Sergio Ramos,3.6,DF,1986,0.20,es ESP,0.1,0.24,3,Real Madrid,"2,220",5,33,5.9,0.24,3,0.15,25,0,0.08,0.15,0.20,La Liga
0,0,0.00,0,0.00,0.00,Raúl,0.0,"DL,CC",2000,0.00,es ESP,0.0,0.00,0,Betis,16,0,18,0.0,0.00,0,0.00,3,0,0.00,0.00,0.00,La Liga
9,14,0.00,0,0.02,0.00,Recio,1.1,CC,1991,0.00,es ESP,0.3,0.09,0,Leganés,"1,308",0,28,1.1,0.07,0,0.09,19,0,0.00,0.07,0.00,La Liga
7,22,0.05,0,0.18,0.19,Sergio Reguilón,1.4,DF,1996,0.05,es ESP,3.7,0.25,0,Sevilla,"1,874",1,22,1.4,0.07,0,0.25,22,4,0.24,0.07,0.24,La Liga
4,26,0.00,0,0.00,0.00,Manolo Reina,0.0,PO,1985,0.00,es ESP,0.0,0.00,0,Mallorca,"2,340",0,34,0.0,0.00,0,0.00,26,0,0.00,0.00,0.00,La Liga
0,20,0.00,0,0.00,0.00,Álex Remiro,0.1,PO,1995,0.00,es ESP,0.0,0.01,0,Real Sociedad,"1,800",0,24,0.1,0.01,0,0.01,20,0,0.00,0.01,0.00,La Liga
2,15,0.00,0,0.14,0.00,Luis Rioja,0.4,CC,1993,0.00,es ESP,1.9,0.17,0,Alavés,"1,193",0,25,0.4,0.03,0,0.17,19,0,0.00,0.03,0.00,La Liga
0,0,0.00,0,0.00,0.00,Rodrigo Riquelme,0.1,CC,2000,0.00,es ESP,0.0,0.85,0,Atlético Madrid,12,0,19,0.1,0.85,0,0.85,1,0,0.00,0.85,0.00,La Liga
3,3,0.00,0,0.03,0.00,Cristian Rivera,0.0,CC,1997,0.00,es ESP,0.1,0.04,0,Leganés,309,0,22,0.0,0.01,0,0.04,5,0,0.00,0.01,0.00,La Liga
8,20,0.05,0,0.08,0.10,Sergi Roberto,0.5,"DF,CC",1992,0.05,es ESP,1.6,0.11,0,Barcelona,"1,740",1,27,0.5,0.02,0,0.11,22,2,0.16,0.02,0.16,La Liga
3,26,0.00,1,0.00,0.00,Joel Robles,0.0,PO,1990,0.00,es ESP,0.0,0.00,0,Betis,"2,257",0,29,0.0,0.00,0,0.00,26,0,0.00,0.00,0.00,La Liga
7,24,0.00,0,0.06,0.04,Marc Roca,0.5,CC,1996,0.09,es ESP,1.3,0.15,2,Espanyol,"2,074",2,22,2.1,0.09,2,0.08,24,1,0.04,0.02,0.13,La Liga
4,14,0.29,0,0.11,0.00,Rubén Rochina,2.0,CC,1991,0.29,es ESP,1.5,0.25,0,Levante,"1,262",4,28,2.0,0.14,0,0.25,19,0,0.29,0.14,0.29,La Liga
2,17,0.13,1,0.28,0.46,Rodrigo,4.1,DL,1991,0.13,es ESP,4.3,0.55,0,Valencia,"1,375",2,28,4.1,0.27,0,0.55,21,7,0.59,0.27,0.59,La Liga
4,15,0.07,1,0.16,0.13,Kévin Rodrigues,0.7,"DF,DL",1994,0.07,pt POR,2.5,0.21,0,Leganés,"1,360",1,25,0.7,0.05,0,0.21,18,2,0.20,0.05,0.20,La Liga
0,0,0.00,0,0.00,0.00,Kévin Rodrigues,0.0,DF,1994,0.00,pt POR,0.0,0.00,0,Real Sociedad,5,0,25,0.0,0.00,0,0.00,1,0,0.00,0.00,0.00,La Liga
4,20,0.32,1,0.13,0.11,Óscar Rodríguez Arnaiz,2.5,"CC,DL",1998,0.38,es ESP,2.4,0.31,1,Leganés,"1,674",7,21,3.3,0.17,1,0.26,26,2,0.43,0.13,0.48,La Liga
4,7,0.74,0,0.12,0.16,Ángel Rodríguez,4.3,DL,1987,0.82,es ESP,1.4,0.53,1,Getafe,"1,094",10,32,5.0,0.41,1,0.47,24,2,0.90,0.35,0.99,La Liga
4,26,0.16,0,0.05,0.04,Dani Rodríguez,3.4,"CC,DL",1988,0.20,es ESP,1.3,0.22,1,Mallorca,"2,202",5,31,4.2,0.17,1,0.19,27,1,0.20,0.14,0.25,La Liga
2,2,0.00,0,0.00,0.00,Guido Rodríguez,0.0,CC,1994,0.00,ar ARG,0.0,0.00,0,Betis,178,0,25,0.0,0.00,0,0.00,5,0,0.00,0.00,0.00,La Liga
1,4,0.26,0,0.48,0.26,James Rodríguez,0.9,CC,1991,0.26,co COL,1.8,0.73,0,Real Madrid,341,1,28,0.9,0.24,0,0.73,7,1,0.53,0.24,0.53,La Liga
0,8,0.27,0,0.12,0.00,Rodrygo,1.8,DL,2001,0.27,br BRA,0.9,0.36,0,Real Madrid,666,2,18,1.8,0.24,0,0.36,12,0,0.27,0.24,0.27,La Liga
4,12,0.09,2,0.02,0.00,Facundo Roncaglia,0.0,DF,1987,0.09,ar ARG,0.2,0.02,0,Osasuna,"1,020",1,32,0.0,0.00,0,0.02,12,0,0.09,0.00,0.09,La Liga
5,14,0.00,0,0.13,0.07,Roberto Rosales,0.1,DF,1988,0.00,ve VEN,1.8,0.14,0,Leganés,"1,200",0,30,0.1,0.01,0,0.14,15,1,0.07,0.01,0.07,La Liga
0,14,0.00,0,0.00,0.00,Rubén,0.0,PO,1984,0.00,es ESP,0.0,0.00,0,Osasuna,"1,223",0,35,0.0,0.00,0,0.00,15,0,0.00,0.00,0.00,La Liga
3,4,0.00,0,0.07,0.20,Waldo Rubio,0.3,"CC,DL",1995,0.00,es ESP,0.4,0.13,0,Valladolid,442,0,23,0.3,0.05,0,0.13,12,1,0.20,0.05,0.20,La Liga
2,4,0.00,0,0.10,0.00,Aitor Ruibal,0.5,"DF,DL",1996,0.00,es ESP,0.6,0.19,0,Leganés,501,0,23,0.5,0.08,0,0.19,14,0,0.00,0.08,0.00,La Liga
1,2,0.00,1,0.00,0.00,Jorge Sáenz,0.0,"DF,DL",1996,0.00,es ESP,0.0,0.00,0,Celta Vigo,130,0,22,0.0,0.00,0,0.00,3,0,0.00,0.00,0.00,La Liga
1,2,0.00,0,0.08,0.00,Borja Sainz,0.9,"CC,DL",2001,0.00,es ESP,0.3,0.33,0,Alavés,339,0,18,0.9,0.24,0,0.33,12,0,0.00,0.24,0.00,La Liga
0,0,0.00,0,0.00,0.00,Yannis Salibur,0.0,"DL,CC",1991,0.00,fr FRA,0.0,0.00,0,Mallorca,52,0,28,0.0,0.00,0,0.00,2,0,0.00,0.00,0.00,La Liga
2,26,0.04,0,0.00,0.04,Mohammed Salisu,1.2,DF,1999,0.04,gh GHA,0.1,0.05,0,Valladolid,"2,366",1,20,1.2,0.05,0,0.05,27,1,0.08,0.05,0.08,La Liga
3,12,0.00,0,0.01,0.00,Fede San Emeterio,0.0,CC,1997,0.00,es ESP,0.1,0.01,0,Valladolid,"1,060",0,22,0.0,0.00,0,0.01,14,0,0.00,0.00,0.00,La Liga
3,3,0.00,0,0.01,0.00,Mikel San José,0.6,CC,1989,0.00,es ESP,0.0,0.15,0,Athletic Bilbao,354,0,30,0.6,0.15,0,0.15,10,0,0.00,0.15,0.00,La Liga
1,4,0.00,0,0.11,0.22,Oihan Sancet,0.4,CC,2000,0.00,es ESP,0.5,0.20,0,Athletic Bilbao,401,0,19,0.4,0.10,0,0.20,8,1,0.22,0.10,0.22,La Liga
9,18,0.11,1,0.00,0.00,Germán Sánchez,1.2,DF,1986,0.11,es ESP,0.0,0.07,0,Granada,"1,590",2,32,1.2,0.07,0,0.07,19,0,0.11,0.07,0.11,La Liga
1,1,0.00,0,0.19,0.00,Manuel Sánchez,0.0,DF,2000,0.00,es ESP,0.1,0.19,0,Atlético Madrid,63,0,18,0.0,0.00,0,0.19,1,0,0.00,0.00,0.00,La Liga
10,19,0.00,1,0.06,0.06,Víctor Sánchez,0.2,"CC,DF",1987,0.00,es ESP,1.0,0.07,0,Espanyol,"1,585",0,31,0.2,0.01,0,0.07,21,1,0.06,0.01,0.06,La Liga
0,5,0.00,0,0.13,0.24,Luca Sangalli,0.5,CC,1995,0.00,es ESP,0.5,0.25,0,Real Sociedad,370,0,24,0.5,0.13,0,0.25,11,1,0.24,0.13,0.24,La Liga
10,20,0.11,1,0.05,0.00,Oier Sanjurjo,1.3,CC,1986,0.11,es ESP,0.8,0.12,0,Osasuna,"1,661",2,33,1.3,0.07,0,0.12,20,0,0.11,0.07,0.11,La Liga
0,0,0.00,0,0.00,0.00,Ivan Šaponjić,0.2,DF,1997,0.00,rs SRB,0.0,8.67,0,Atlético Madrid,2,0,21,0.2,8.67,0,8.67,1,0,0.00,8.67,0.00,La Liga
4,15,0.00,0,0.10,0.14,Joan Sastre Vanrell,0.4,DF,1997,0.00,es ESP,1.4,0.13,0,Mallorca,"1,281",0,22,0.4,0.03,0,0.13,15,2,0.14,0.03,0.14,La Liga
3,14,0.00,0,0.01,0.00,Stefan Savić,0.0,DF,1991,0.00,me MNE,0.1,0.01,0,Atlético Madrid,"1,260",0,28,0.0,0.00,0,0.01,14,0,0.00,0.00,0.00,La Liga
1,3,0.00,0,0.00,0.00,Aleksandar Sedlar,0.0,DF,1991,0.00,rs SRB,0.0,0.00,0,Mallorca,256,0,27,0.0,0.00,0,0.00,5,0,0.00,0.00,0.00,La Liga
1,16,0.00,0,0.08,0.13,Nélson Semedo,0.3,DF,1993,0.00,pt POR,1.2,0.09,0,Barcelona,"1,384",0,25,0.3,0.02,0,0.09,21,2,0.13,0.02,0.13,La Liga
0,1,0.00,0,0.02,0.00,Josep Señé,0.0,CC,1991,0.00,es ESP,0.0,0.02,0,Mallorca,134,0,27,0.0,0.00,0,0.02,4,0,0.00,0.00,0.00,La Liga
9,24,0.05,1,0.15,0.15,Salva Sevilla,0.7,CC,1984,0.15,es ESP,3.1,0.30,2,Mallorca,"1,856",3,35,3.0,0.15,3,0.19,24,3,0.19,0.04,0.29,La Liga
1,9,0.12,0,0.00,0.00,Sidnei,0.2,DF,1989,0.12,br BRA,0.0,0.02,0,Betis,772,1,29,0.2,0.02,0,0.02,10,0,0.12,0.02,0.12,La Liga
11,24,0.00,0,0.06,0.00,Jonathan Silva,1.0,DF,1994,0.00,ar ARG,1.5,0.10,0,Leganés,"2,125",0,25,1.0,0.04,0,0.10,24,0,0.00,0.04,0.00,La Liga
1,26,0.00,0,0.00,0.00,Rui Silva,0.0,PO,1994,0.00,pt POR,0.0,0.00,0,Granada,"2,340",0,25,0.0,0.00,0,0.00,26,0,0.00,0.00,0.00,La Liga
2,24,0.00,0,0.00,0.00,Unai Simón,0.0,PO,1997,0.00,es ESP,0.0,0.00,0,Athletic Bilbao,"2,160",0,22,0.0,0.00,0,0.00,24,0,0.00,0.00,0.00,La Liga
4,17,0.00,0,0.00,0.00,Dimitris Siovas,0.9,DF,1988,0.00,gr GRE,0.1,0.06,0,Leganés,"1,382",0,30,0.9,0.06,0,0.06,18,0,0.00,0.06,0.00,La Liga
2,7,0.23,0,0.05,0.00,Pione Sisto,1.8,"DL,CC",1995,0.23,dk DEN,0.4,0.26,0,Celta Vigo,766,2,24,1.8,0.21,0,0.26,19,0,0.23,0.21,0.23,La Liga
1,3,0.00,0,0.00,0.00,Antonio Sivera,0.0,PO,1996,0.00,es ESP,0.0,0.00,0,Alavés,270,0,22,0.0,0.00,0,0.00,3,0,0.00,0.00,0.00,La Liga
2,5,0.25,0,0.09,0.00,Fyodor Smolov,0.8,DL,1990,0.25,ru RUS,0.4,0.28,0,Celta Vigo,362,1,29,0.8,0.19,0,0.28,6,0,0.25,0.19,0.25,La Liga
0,1,0.70,0,0.13,0.00,Rubén Sobrino,0.3,"DL,CC",1992,0.70,es ESP,0.2,0.36,0,Valencia,128,1,27,0.3,0.23,0,0.36,10,0,0.70,0.23,0.70,La Liga
11,22,0.05,0,0.17,0.20,Roberto Soldado,2.3,DL,1985,0.10,es ESP,3.3,0.32,1,Granada,"1,760",2,34,3.0,0.16,1,0.28,23,4,0.26,0.12,0.31,La Liga
3,16,0.13,0,0.06,0.00,Carlos Soler,1.3,CC,1997,0.13,es ESP,1.0,0.15,0,Valencia,"1,382",2,22,1.3,0.08,0,0.15,18,0,0.13,0.08,0.13,La Liga
0,0,0.00,0,0.00,0.00,Kévin Soni,0.0,DL,1998,0.00,cm CMR,0.0,0.00,0,Espanyol,3,0,21,0.0,0.00,0,0.00,1,0,0.00,0.00,0.00,La Liga
1,27,0.00,0,0.00,0.00,David Soria,0.0,PO,1993,0.00,es ESP,0.0,0.00,0,Getafe,"2,430",0,26,0.0,0.00,0,0.00,27,0,0.00,0.00,0.00,La Liga
2,11,0.00,0,0.00,0.00,Juan Soriano,0.3,PO,1997,0.00,es ESP,0.0,0.03,0,Leganés,990,0,21,0.3,0.03,0,0.03,11,0,0.00,0.03,0.00,La Liga
11,22,0.05,0,0.10,0.19,Damián Suárez,0.6,DF,1988,0.05,uy URU,2.1,0.12,0,Getafe,"1,926",1,31,0.6,0.03,0,0.12,22,4,0.23,0.03,0.23,La Liga
2,16,0.07,0,0.22,0.20,Denis Suárez,1.3,"CC,DL",1994,0.07,es ESP,3.3,0.36,0,Celta Vigo,"1,326",1,25,2.0,0.14,1,0.31,20,3,0.27,0.09,0.27,La Liga
4,15,0.70,0,0.19,0.49,Luis Suárez,9.0,DL,1987,0.77,uy URU,2.8,0.88,1,Barcelona,"1,278",11,32,9.7,0.68,1,0.83,17,7,1.20,0.64,1.27,La Liga
0,0,0.00,0,0.00,0.00,Ki Sung-yueng,0.0,CC,1989,0.00,kr KOR,0.0,0.00,0,Mallorca,8,0,30,0.0,0.00,0,0.00,1,0,0.00,0.00,0.00,La Liga
0,4,0.25,0,0.20,0.25,Suso,0.2,"DL,CC",1993,0.25,es ESP,0.8,0.26,0,Sevilla,354,1,25,0.2,0.06,0,0.26,6,1,0.51,0.06,0.51,La Liga
0,0,0.00,0,0.00,0.00,Tachi,0.0,"CC,DF",1997,0.00,es ESP,0.0,0.00,0,Alavés,10,0,21,0.0,0.00,0,0.00,2,0,0.00,0.00,0.00,La Liga
1,5,0.00,0,0.00,0.00,Rodrigo Tarín,0.2,DF,1996,0.00,es ESP,0.0,0.04,0,Leganés,356,0,23,0.2,0.04,0,0.04,7,0,0.00,0.04,0.00,La Liga
3,13,0.00,0,0.05,0.00,Álvaro Tejero,0.1,DF,1996,0.00,es ESP,0.7,0.06,0,Eibar,"1,193",0,23,0.1,0.01,0,0.06,15,0,0.00,0.01,0.00,La Liga
0,3,0.20,0,0.03,0.00,Cristian Tello,1.6,"CC,DL",1991,0.20,es ESP,0.2,0.35,0,Betis,447,1,27,1.6,0.32,0,0.35,18,0,0.20,0.32,0.20,La Liga
0,26,0.00,0,0.03,0.08,Marc-André ter Stegen,0.0,PO,1992,0.00,de GER,0.7,0.03,0,Barcelona,"2,340",0,27,0.0,0.00,0,0.03,26,2,0.08,0.00,0.08,La Liga
2,3,0.58,0,0.01,0.00,David Timor,0.2,CC,1989,0.58,es ESP,0.0,0.07,0,Getafe,312,2,29,0.2,0.07,0,0.07,11,0,0.58,0.07,0.58,La Liga
0,1,0.00,0,0.00,0.00,Jean-Clair Todibo,0.0,DF,1999,0.00,fr FRA,0.0,0.00,0,Barcelona,77,0,19,0.0,0.00,0,0.00,2,0,0.00,0.00,0.00,La Liga
0,11,0.54,0,0.11,0.18,Karl Toko Ekambi,6.6,DL,1992,0.54,cm CMR,1.2,0.71,0,Villarreal,995,6,26,6.6,0.60,0,0.71,18,2,0.72,0.60,0.72,La Liga
1,6,0.50,0,0.02,0.00,Raúl de Tomás,2.3,DL,1994,0.67,es ESP,0.1,0.53,1,Espanyol,540,4,24,3.1,0.51,1,0.40,6,0,0.50,0.38,0.67,La Liga
0,13,0.00,0,0.10,0.15,Toño,0.1,DF,1989,0.00,es ESP,1.3,0.11,0,Levante,"1,171",0,29,0.1,0.01,0,0.11,14,2,0.15,0.01,0.15,La Liga
5,20,0.20,0,0.18,0.20,Ferrán Torres,3.2,"CC,DL",2000,0.20,es ESP,3.6,0.35,0,Valencia,"1,775",4,19,3.2,0.16,0,0.35,25,4,0.41,0.16,0.41,La Liga
5,14,0.08,0,0.16,0.24,Óliver Torres,1.3,"DL,CC",1994,0.08,es ESP,1.9,0.26,0,Sevilla,"1,115",1,24,1.3,0.10,0,0.26,20,3,0.32,0.10,0.32,La Liga
4,23,0.04,0,0.06,0.04,Pau Torres,1.1,DF,1997,0.04,es ESP,1.3,0.10,0,Villarreal,"2,070",1,22,1.1,0.05,0,0.10,24,1,0.09,0.05,0.09,La Liga
1,24,0.04,0,0.18,0.30,Roberto Torres,3.2,"CC,DL",1989,0.26,es ESP,4.1,0.48,5,Osasuna,"2,074",6,30,6.9,0.30,5,0.32,26,7,0.35,0.14,0.56,La Liga
0,0,0.00,0,0.35,0.00,Aleksandar Trajkovski,0.1,CC,1992,0.00,mk MKD,0.6,0.43,0,Mallorca,147,0,26,0.1,0.08,0,0.43,7,0,0.00,0.08,0.00,La Liga
4,14,0.00,0,0.29,0.30,Manu Trigueros,1.1,CC,1991,0.07,es ESP,3.9,0.43,1,Villarreal,"1,210",1,27,1.8,0.14,1,0.37,20,4,0.30,0.08,0.37,La Liga
2,17,0.00,0,0.18,0.18,Kieran Trippier,0.2,DF,1990,0.00,eng ENG,3.0,0.19,0,Atlético Madrid,"1,527",0,28,0.2,0.01,0,0.19,19,3,0.18,0.01,0.18,La Liga
4,9,0.00,0,0.00,0.00,Samuel Umtiti,0.0,DF,1993,0.00,fr FRA,0.0,0.00,0,Barcelona,839,0,25,0.0,0.00,0,0.00,11,0,0.00,0.00,0.00,La Liga
2,17,0.16,0,0.13,0.11,Enes Ünal,4.6,DL,1997,0.21,tr TUR,2.4,0.41,1,Valladolid,"1,710",4,22,5.4,0.28,1,0.37,24,2,0.26,0.24,0.32,La Liga
0,26,0.00,0,0.00,0.00,Tomáš Vaclík,0.0,PO,1989,0.00,cz CZE,0.0,0.00,0,Sevilla,"2,295",0,30,0.0,0.00,0,0.00,26,0,0.00,0.00,0.00,La Liga
0,15,0.15,0,0.12,0.07,Álvaro Vadillo,1.1,"DL,CC",1994,0.22,es ESP,1.7,0.26,1,Granada,"1,223",3,24,1.8,0.14,1,0.20,22,1,0.22,0.08,0.29,La Liga
0,0,0.00,0,2.04,0.00,Germán Valera,0.0,DL,2002,0.00,es ESP,0.1,2.04,0,Atlético Madrid,3,0,17,0.0,0.00,0,2.04,1,0,0.00,0.00,0.00,La Liga
4,27,0.00,0,0.02,0.00,Martin Valjent,0.4,DF,1995,0.00,sk SVK,0.5,0.03,0,Mallorca,"2,430",0,23,0.4,0.01,0,0.03,27,0,0.00,0.01,0.00,La Liga
0,2,0.00,0,0.00,0.00,Jesús Vallejo,0.1,DF,1997,0.00,es ESP,0.0,0.04,0,Granada,184,0,22,0.1,0.04,0,0.04,3,0,0.00,0.04,0.00,La Liga
0,2,0.29,0,0.11,0.00,Manu Vallejo,1.3,"CC,DL",1997,0.29,es ESP,0.4,0.47,0,Valencia,315,1,22,1.3,0.36,0,0.47,8,0,0.29,0.36,0.29,La Liga
1,14,0.14,0,0.23,0.28,Federico Valverde,1.8,CC,1998,0.14,uy URU,3.2,0.36,0,Real Madrid,"1,266",2,21,1.8,0.13,0,0.36,22,4,0.43,0.13,0.43,La Liga
2,23,0.13,0,0.01,0.04,Raphaël Varane,0.7,DF,1993,0.13,fr FRA,0.3,0.04,0,Real Madrid,"2,070",3,26,0.7,0.03,0,0.04,23,1,0.17,0.03,0.17,La Liga
1,10,0.00,0,0.22,0.29,Matías Vargas,0.9,"DL,CC",1997,0.00,ar ARG,2.3,0.30,0,Espanyol,942,0,21,0.9,0.08,0,0.30,16,3,0.29,0.08,0.29,La Liga
4,9,0.30,0,0.02,0.00,Franco Vázquez,1.2,"CC,DL",1989,0.30,ar ARG,0.2,0.14,0,Sevilla,894,3,30,1.2,0.12,0,0.14,23,0,0.30,0.12,0.30,La Liga
5,9,0.00,0,0.01,0.00,Kevin Vázquez,0.0,DF,1993,0.00,es ESP,0.1,0.01,0,Celta Vigo,735,0,26,0.0,0.00,0,0.01,9,0,0.00,0.00,0.00,La Liga
1,6,0.28,0,0.21,0.14,Lucas Vázquez,1.1,"CC,DL",1991,0.28,es ESP,1.5,0.37,0,Real Madrid,639,2,28,1.1,0.16,0,0.37,14,1,0.42,0.16,0.42,La Liga
1,1,0.00,0,0.00,0.00,Unai Vencedor Paris,0.1,CC,2000,0.00,es ESP,0.0,0.07,0,Athletic Bilbao,74,0,18,0.1,0.07,0,0.07,1,0,0.00,0.07,0.00,La Liga
2,7,0.00,0,0.01,0.00,Mikel Vesga,0.3,CC,1993,0.00,es ESP,0.1,0.05,0,Athletic Bilbao,682,0,26,0.3,0.03,0,0.05,9,0,0.00,0.03,0.00,La Liga
4,19,0.00,0,0.02,0.00,Rúben Vezo,0.7,DF,1994,0.00,pt POR,0.4,0.06,0,Levante,"1,710",0,25,0.7,0.04,0,0.06,19,0,0.00,0.04,0.00,La Liga
1,6,0.00,0,0.16,0.22,Fede Vico,0.4,"CC,DL",1994,0.22,es ESP,0.7,0.42,1,Granada,409,1,25,1.2,0.26,1,0.25,9,1,0.22,0.10,0.44,La Liga
6,23,0.09,0,0.17,0.18,Aleix Vidal,2.4,CC,1989,0.09,es ESP,3.8,0.28,0,Alavés,"1,997",2,29,2.4,0.11,0,0.28,25,4,0.27,0.11,0.27,La Liga
3,8,0.59,0,0.23,0.20,Arturo Vidal,2.7,"CC,DL",1987,0.59,cl CHI,2.3,0.49,0,Barcelona,923,6,32,2.7,0.27,0,0.49,22,2,0.78,0.27,0.78,La Liga
5,18,0.00,0,0.07,0.00,Nacho Vidal,0.6,DF,1995,0.00,es ESP,1.3,0.11,0,Osasuna,"1,556",0,24,0.6,0.04,0,0.11,19,0,0.00,0.04,0.00,La Liga
5,19,0.00,0,0.06,0.00,Dídac Vilà,0.6,DF,1989,0.00,es ESP,1.1,0.09,0,Espanyol,"1,742",0,30,0.6,0.03,0,0.09,21,0,0.00,0.03,0.00,La Liga
4,14,0.00,0,0.12,0.08,Toni Villa,0.7,CC,1995,0.00,es ESP,1.5,0.18,0,Valladolid,"1,110",0,24,0.7,0.06,0,0.18,18,1,0.08,0.06,0.08,La Liga
0,4,0.26,0,0.00,0.00,Asier Villalibre,0.9,DL,1997,0.26,es ESP,0.0,0.25,0,Athletic Bilbao,340,1,21,0.9,0.25,0,0.25,9,0,0.26,0.25,0.26,La Liga
1,2,0.00,0,0.08,0.00,Juan Villar,0.3,DL,1988,0.38,es ESP,0.2,0.50,1,Osasuna,234,1,31,1.1,0.42,1,0.21,10,0,0.00,0.13,0.38,La Liga
3,10,0.17,0,0.11,0.09,Vitolo,1.9,"CC,DL",1989,0.17,es ESP,1.3,0.28,0,Atlético Madrid,"1,035",2,29,1.9,0.17,0,0.28,21,1,0.26,0.17,0.26,La Liga
3,4,0.00,0,0.08,0.25,Šime Vrsaljko,0.0,DF,1992,0.00,hr CRO,0.3,0.08,0,Atlético Madrid,363,0,27,0.0,0.00,0,0.08,5,1,0.25,0.00,0.25,La Liga
8,13,0.00,0,0.02,0.17,Nikola Vukčević,0.2,CC,1991,0.00,me MNE,0.2,0.03,0,Levante,"1,082",0,27,0.2,0.02,0,0.03,22,2,0.17,0.02,0.17,La Liga
0,1,0.00,0,0.00,0.00,Moussa Wagué,0.0,DF,1998,0.00,sn SEN,0.0,0.00,0,Barcelona,90,0,20,0.0,0.00,0,0.00,1,0,0.00,0.00,0.00,La Liga
12,15,0.00,1,0.01,0.00,Wakaso,0.3,CC,1990,0.00,gh GHA,0.1,0.03,0,Alavés,"1,287",0,29,0.3,0.02,0,0.03,16,0,0.00,0.02,0.00,La Liga
5,24,0.04,0,0.09,0.25,Daniel Wass,1.2,"DF,CC",1989,0.04,dk DEN,2.1,0.14,0,Valencia,"2,167",1,30,1.2,0.05,0,0.14,25,6,0.29,0.05,0.29,La Liga
2,25,0.20,0,0.09,0.00,Iñaki Williams,4.6,DL,1994,0.25,es ESP,2.1,0.34,1,Athletic Bilbao,"2,204",6,25,6.1,0.25,2,0.28,27,0,0.20,0.19,0.25,La Liga
1,1,0.00,0,0.00,0.00,Yoel,0.0,PO,1988,0.00,es ESP,0.0,0.00,0,Eibar,90,0,30,0.0,0.00,0,0.00,2,0,0.00,0.00,0.00,La Liga
3,16,0.00,0,0.01,0.07,Okay Yokuşlu,0.1,CC,1994,0.00,tr TUR,0.2,0.02,0,Celta Vigo,"1,364",0,25,0.1,0.01,0,0.02,16,1,0.07,0.01,0.07,La Liga
6,23,0.00,0,0.06,0.09,Joseba Zaldúa,0.2,DF,1992,0.00,es ESP,1.4,0.07,0,Real Sociedad,"2,053",0,27,0.2,0.01,0,0.07,24,2,0.09,0.01,0.09,La Liga
6,18,0.05,0,0.03,0.00,Andre-Frank Zambo Anguissa,1.4,CC,1995,0.05,cm CMR,0.6,0.10,0,Villarreal,"1,683",1,23,1.4,0.07,0,0.10,25,0,0.05,0.07,0.05,La Liga
7,22,0.00,0,0.02,0.04,Igor Zubeldia,0.2,"CC,DF",1997,0.00,es ESP,0.4,0.03,0,Real Sociedad,"2,003",0,22,0.2,0.01,0,0.03,24,1,0.04,0.01,0.04,La Liga
0,1,0.00,0,0.00,0.00,David Zurutuza,0.0,CC,1986,0.00,es ESP,0.0,0.00,0,Real Sociedad,92,0,33,0.0,0.00,0,0.00,4,0,0.00,0.00,0.00,La Liga
3,22,0.18,0,0.24,0.22,Martin Ødegaard,2.8,CC,1998,0.18,no NOR,5.4,0.37,0,Real Sociedad,"2,013",4,20,2.8,0.13,0,0.37,23,5,0.40,0.13,0.40,La Liga
