,pens_made,birth_year,matches,nationality,squad,cards_yellow,cards_red,goals_per90,age,xa,assists_per90,npxg_per90,npxg_xa_per90,xa_per90,position,goals_assists_pens_per90,games,npxg,xg,pens_att,xg_xa_per90,goals,xg_per90,minutes,goals_pens_per90,assists,goals_assists_per90,player,games_starts,league
0,,,,,Zenit,,,,,,,,,,,,,,,,,,,,,,,,,Rusia
1,,,,,Loko Moscow,,,,,,,,,,,,,,,,,,,,,,,,,Rusia
2,,,,,Krasnodar,,,,,,,,,,,,,,,,,,,,,,,,,Rusia
3,,,,,CSKA Moscow,,,,,,,,,,,,,,,,,,,,,,,,,Rusia
4,,,,,Spartak Moscow,,,,,,,,,,,,,,,,,,,,,,,,,Rusia
5,,,,,Arsenal Tula,,,,,,,,,,,,,,,,,,,,,,,,,Rusia
6,,,,,Orenburg,,,,,,,,,,,,,,,,,,,,,,,,,Rusia
7,,,,,Akhmat Grozny,,,,,,,,,,,,,,,,,,,,,,,,,Rusia
8,,,,,Rostov,,,,,,,,,,,,,,,,,,,,,,,,,Rusia
9,,,,,Ural,,,,,,,,,,,,,,,,,,,,,,,,,Rusia
10,,,,,Rubin Kazan,,,,,,,,,,,,,,,,,,,,,,,,,Rusia
11,,,,,Dynamo Mosc,,,,,,,,,,,,,,,,,,,,,,,,,Rusia
12,,,,,Samara,,,,,,,,,,,,,,,,,,,,,,,,,Rusia
13,,,,,Ufa,,,,,,,,,,,,,,,,,,,,,,,,,Rusia
14,,,,,Anzhi,,,,,,,,,,,,,,,,,,,,,,,,,Rusia
15,,,,,Yenisey,,,,,,,,,,,,,,,,,,,,,,,,,Rusia
