,pens_made,birth_year,matches,nationality,squad,cards_yellow,cards_red,goals_per90,age,xa,assists_per90,npxg_per90,npxg_xa_per90,xa_per90,position,goals_assists_pens_per90,games,npxg,xg,pens_att,xg_xa_per90,goals,xg_per90,minutes,goals_pens_per90,assists,goals_assists_per90,player,games_starts,league
0,,,,,Pasto,,,,,,,,,,,,6,,,,,,,,,,,,,Colombia
1,,,,,Millonarios,,,,,,,,,,,,6,,,,,,,,,,,,,Colombia
2,,,,,CD América,,,,,,,,,,,,6,,,,,,,,,,,,,Colombia
3,,,,,ADU Magdalena,,,,,,,,,,,,6,,,,,,,,,,,,,Colombia
