,pens_made,birth_year,matches,nationality,squad,cards_yellow,cards_red,goals_per90,age,xa,assists_per90,npxg_per90,npxg_xa_per90,xa_per90,position,goals_assists_pens_per90,games,npxg,xg,pens_att,xg_xa_per90,goals,xg_per90,minutes,goals_pens_per90,assists,goals_assists_per90,player,games_starts,league
0,,,,,Nacional,,,,,,,,,,,,,,,,,,,,,,,,,Uruguay
1,,,,,Peñarol,,,,,,,,,,,,,,,,,,,,,,,,,Uruguay
2,,,,,Cerro Largo,,,,,,,,,,,,,,,,,,,,,,,,,Uruguay
3,,,,,Progreso,,,,,,,,,,,,,,,,,,,,,,,,,Uruguay
4,,,,,Liverpool,,,,,,,,,,,,,,,,,,,,,,,,,Uruguay
5,,,,,Plaza Colonia,,,,,,,,,,,,,,,,,,,,,,,,,Uruguay
6,,,,,River Plate,,,,,,,,,,,,,,,,,,,,,,,,,Uruguay
7,,,,,Fénix,,,,,,,,,,,,,,,,,,,,,,,,,Uruguay
8,,,,,Boston River,,,,,,,,,,,,,,,,,,,,,,,,,Uruguay
9,,,,,Wanderers,,,,,,,,,,,,,,,,,,,,,,,,,Uruguay
10,,,,,Defensor,,,,,,,,,,,,,,,,,,,,,,,,,Uruguay
11,,,,,Danubio,,,,,,,,,,,,,,,,,,,,,,,,,Uruguay
12,,,,,Racing,,,,,,,,,,,,,,,,,,,,,,,,,Uruguay
13,,,,,Rampla Juniors,,,,,,,,,,,,,,,,,,,,,,,,,Uruguay
14,,,,,Cerro,,,,,,,,,,,,,,,,,,,,,,,,,Uruguay
15,,,,,Juventud,,,,,,,,,,,,,,,,,,,,,,,,,Uruguay
